<?xml version="1.0"?>
<!DOCTYPE svg PUBLIC '-//W3C//DTD SVG 1.0//EN'
          'http://www.w3.org/TR/2001/REC-SVG-20010904/DTD/svg10.dtd'>
<svg xmlns:xlink="http://www.w3.org/1999/xlink" style="fill-opacity:1; color-rendering:auto; color-interpolation:auto; text-rendering:auto; stroke:black; stroke-linecap:square; stroke-miterlimit:10; shape-rendering:auto; stroke-opacity:1; fill:black; stroke-dasharray:none; font-weight:normal; stroke-width:1; font-family:'Dialog'; font-style:normal; stroke-linejoin:miter; font-size:12px; stroke-dashoffset:0; image-rendering:auto;" width="500" height="500" xmlns="http://www.w3.org/2000/svg"
><!--Generated by the Batik Graphics2D SVG Generator--><defs id="genericDefs"
  /><g
  ><defs id="defs1"
    ><clipPath clipPathUnits="userSpaceOnUse" id="clipPath1"
      ><path d="M0 0 L500 0 L500 500 L0 500 L0 0 Z"
      /></clipPath
    ></defs
    ><g style="fill:white; stroke:white;"
    ><rect x="0" y="0" width="500" style="clip-path:url(#clipPath1); stroke:none;" height="500"
    /></g
    ><g style="fill:white; text-rendering:optimizeSpeed; color-rendering:optimizeSpeed; image-rendering:optimizeSpeed; shape-rendering:crispEdges; stroke:white; color-interpolation:sRGB;"
    ><rect x="0" width="500" height="500" y="0" style="stroke:none;"
      /><path style="stroke:none;" d="M67 445 L453 445 L453 37 L67 37 Z"
    /></g
    ><g style="stroke-linecap:butt; fill-opacity:0.149; fill:rgb(38,38,38); text-rendering:geometricPrecision; image-rendering:optimizeQuality; color-rendering:optimizeQuality; stroke-linejoin:round; stroke:rgb(38,38,38); color-interpolation:linearRGB; stroke-width:0.8333; stroke-opacity:0.149;"
    ><line y2="37" style="fill:none;" x1="67" x2="67" y1="445"
      /><line y2="37" style="fill:none;" x1="122.1429" x2="122.1429" y1="445"
      /><line y2="37" style="fill:none;" x1="177.2857" x2="177.2857" y1="445"
      /><line y2="37" style="fill:none;" x1="232.4286" x2="232.4286" y1="445"
      /><line y2="37" style="fill:none;" x1="287.5714" x2="287.5714" y1="445"
      /><line y2="37" style="fill:none;" x1="342.7143" x2="342.7143" y1="445"
      /><line y2="37" style="fill:none;" x1="397.8571" x2="397.8571" y1="445"
      /><line y2="37" style="fill:none;" x1="453" x2="453" y1="445"
      /><line y2="445" style="fill:none;" x1="453" x2="67" y1="445"
      /><line y2="404.1998" style="fill:none;" x1="453" x2="67" y1="404.1998"
      /><line y2="363.3997" style="fill:none;" x1="453" x2="67" y1="363.3997"
      /><line y2="322.6003" style="fill:none;" x1="453" x2="67" y1="322.6003"
      /><line y2="281.8002" style="fill:none;" x1="453" x2="67" y1="281.8002"
      /><line y2="241" style="fill:none;" x1="453" x2="67" y1="241"
      /><line y2="200.1998" style="fill:none;" x1="453" x2="67" y1="200.1998"
      /><line y2="159.3997" style="fill:none;" x1="453" x2="67" y1="159.3997"
      /><line y2="118.6003" style="fill:none;" x1="453" x2="67" y1="118.6003"
      /><line y2="77.8002" style="fill:none;" x1="453" x2="67" y1="77.8002"
      /><line y2="37" style="fill:none;" x1="453" x2="67" y1="37"
      /><line x1="67" x2="453" y1="445" style="stroke-linecap:square; fill-opacity:1; fill:none; stroke-opacity:1;" y2="445"
      /><line x1="67" x2="453" y1="37" style="stroke-linecap:square; fill-opacity:1; fill:none; stroke-opacity:1;" y2="37"
      /><line x1="67" x2="67" y1="445" style="stroke-linecap:square; fill-opacity:1; fill:none; stroke-opacity:1;" y2="440.9199"
      /><line x1="122.1429" x2="122.1429" y1="445" style="stroke-linecap:square; fill-opacity:1; fill:none; stroke-opacity:1;" y2="440.9199"
      /><line x1="177.2857" x2="177.2857" y1="445" style="stroke-linecap:square; fill-opacity:1; fill:none; stroke-opacity:1;" y2="440.9199"
      /><line x1="232.4286" x2="232.4286" y1="445" style="stroke-linecap:square; fill-opacity:1; fill:none; stroke-opacity:1;" y2="440.9199"
      /><line x1="287.5714" x2="287.5714" y1="445" style="stroke-linecap:square; fill-opacity:1; fill:none; stroke-opacity:1;" y2="440.9199"
      /><line x1="342.7143" x2="342.7143" y1="445" style="stroke-linecap:square; fill-opacity:1; fill:none; stroke-opacity:1;" y2="440.9199"
      /><line x1="397.8571" x2="397.8571" y1="445" style="stroke-linecap:square; fill-opacity:1; fill:none; stroke-opacity:1;" y2="440.9199"
      /><line x1="453" x2="453" y1="445" style="stroke-linecap:square; fill-opacity:1; fill:none; stroke-opacity:1;" y2="440.9199"
      /><line x1="67" x2="67" y1="37" style="stroke-linecap:square; fill-opacity:1; fill:none; stroke-opacity:1;" y2="41.0801"
      /><line x1="122.1429" x2="122.1429" y1="37" style="stroke-linecap:square; fill-opacity:1; fill:none; stroke-opacity:1;" y2="41.0801"
      /><line x1="177.2857" x2="177.2857" y1="37" style="stroke-linecap:square; fill-opacity:1; fill:none; stroke-opacity:1;" y2="41.0801"
      /><line x1="232.4286" x2="232.4286" y1="37" style="stroke-linecap:square; fill-opacity:1; fill:none; stroke-opacity:1;" y2="41.0801"
      /><line x1="287.5714" x2="287.5714" y1="37" style="stroke-linecap:square; fill-opacity:1; fill:none; stroke-opacity:1;" y2="41.0801"
      /><line x1="342.7143" x2="342.7143" y1="37" style="stroke-linecap:square; fill-opacity:1; fill:none; stroke-opacity:1;" y2="41.0801"
      /><line x1="397.8571" x2="397.8571" y1="37" style="stroke-linecap:square; fill-opacity:1; fill:none; stroke-opacity:1;" y2="41.0801"
      /><line x1="453" x2="453" y1="37" style="stroke-linecap:square; fill-opacity:1; fill:none; stroke-opacity:1;" y2="41.0801"
    /></g
    ><g transform="translate(67,451.6668)" style="font-size:16.6667px; fill:rgb(38,38,38); text-rendering:geometricPrecision; image-rendering:optimizeQuality; color-rendering:optimizeQuality; font-family:'SansSerif'; stroke:rgb(38,38,38); color-interpolation:linearRGB;"
    ><path style="stroke:none;" d="M-4.2969 13.8125 L-2.7188 13.6719 Q-2.5469 14.8281 -1.9141 15.4062 Q-1.2812 15.9844 -0.3906 15.9844 Q0.6875 15.9844 1.4375 15.1719 Q2.1875 14.3594 2.1875 13 Q2.1875 11.7344 1.4688 10.9922 Q0.75 10.25 -0.4062 10.25 Q-1.125 10.25 -1.7109 10.5781 Q-2.2969 10.9062 -2.625 11.4375 L-4.0312 11.25 L-2.8438 5 L3.2031 5 L3.2031 6.4219 L-1.6562 6.4219 L-2.3125 9.6875 Q-1.2188 8.9375 -0.0156 8.9375 Q1.5781 8.9375 2.6797 10.0391 Q3.7812 11.1406 3.7812 12.875 Q3.7812 14.5312 2.8125 15.7344 Q1.6406 17.2031 -0.3906 17.2031 Q-2.0469 17.2031 -3.0938 16.2734 Q-4.1406 15.3438 -4.2969 13.8125 Z"
    /></g
    ><g transform="translate(122.1429,451.6668)" style="font-size:16.6667px; fill:rgb(38,38,38); text-rendering:geometricPrecision; image-rendering:optimizeQuality; color-rendering:optimizeQuality; font-family:'SansSerif'; stroke:rgb(38,38,38); color-interpolation:linearRGB;"
    ><path style="stroke:none;" d="M-3.1719 17 L-4.6562 17 L-4.6562 7.4844 Q-5.2031 8 -6.0781 8.5078 Q-6.9531 9.0156 -7.6562 9.2812 L-7.6562 7.8281 Q-6.3906 7.25 -5.4531 6.4062 Q-4.5156 5.5625 -4.125 4.7812 L-3.1719 4.7812 L-3.1719 17 ZM0.4665 11 Q0.4665 8.8438 0.9118 7.5234 Q1.3572 6.2031 2.2322 5.4922 Q3.1072 4.7812 4.4353 4.7812 Q5.4197 4.7812 6.154 5.1719 Q6.8884 5.5625 7.3728 6.3125 Q7.8572 7.0625 8.1306 8.125 Q8.404 9.1875 8.404 11 Q8.404 13.1406 7.9665 14.4531 Q7.529 15.7656 6.654 16.4844 Q5.779 17.2031 4.4353 17.2031 Q2.6697 17.2031 1.6697 15.9531 Q0.4665 14.4219 0.4665 11 ZM1.9978 11 Q1.9978 14 2.7009 14.9922 Q3.404 15.9844 4.4353 15.9844 Q5.4665 15.9844 6.1697 14.9844 Q6.8728 13.9844 6.8728 11 Q6.8728 8 6.1697 7.0078 Q5.4665 6.0156 4.4197 6.0156 Q3.3884 6.0156 2.779 6.8906 Q1.9978 8 1.9978 11 Z"
    /></g
    ><g transform="translate(177.2857,451.6668)" style="font-size:16.6667px; fill:rgb(38,38,38); text-rendering:geometricPrecision; image-rendering:optimizeQuality; color-rendering:optimizeQuality; font-family:'SansSerif'; stroke:rgb(38,38,38); color-interpolation:linearRGB;"
    ><path style="stroke:none;" d="M-3.1719 17 L-4.6562 17 L-4.6562 7.4844 Q-5.2031 8 -6.0781 8.5078 Q-6.9531 9.0156 -7.6562 9.2812 L-7.6562 7.8281 Q-6.3906 7.25 -5.4531 6.4062 Q-4.5156 5.5625 -4.125 4.7812 L-3.1719 4.7812 L-3.1719 17 ZM0.4665 13.8125 L2.0447 13.6719 Q2.2165 14.8281 2.8493 15.4062 Q3.4822 15.9844 4.3728 15.9844 Q5.4509 15.9844 6.2009 15.1719 Q6.9509 14.3594 6.9509 13 Q6.9509 11.7344 6.2322 10.9922 Q5.5134 10.25 4.3572 10.25 Q3.6384 10.25 3.0525 10.5781 Q2.4665 10.9062 2.1384 11.4375 L0.7322 11.25 L1.9197 5 L7.9665 5 L7.9665 6.4219 L3.1072 6.4219 L2.4509 9.6875 Q3.5447 8.9375 4.7478 8.9375 Q6.3415 8.9375 7.4431 10.0391 Q8.5447 11.1406 8.5447 12.875 Q8.5447 14.5312 7.5759 15.7344 Q6.404 17.2031 4.3728 17.2031 Q2.7165 17.2031 1.6697 16.2734 Q0.6228 15.3438 0.4665 13.8125 Z"
    /></g
    ><g transform="translate(232.4286,451.6668)" style="font-size:16.6667px; fill:rgb(38,38,38); text-rendering:geometricPrecision; image-rendering:optimizeQuality; color-rendering:optimizeQuality; font-family:'SansSerif'; stroke:rgb(38,38,38); color-interpolation:linearRGB;"
    ><path style="stroke:none;" d="M-0.9375 15.5625 L-0.9375 17 L-8.9844 17 Q-9 16.4531 -8.8125 15.9688 Q-8.5 15.1406 -7.8281 14.3438 Q-7.1562 13.5469 -5.875 12.5 Q-3.8906 10.875 -3.1953 9.9219 Q-2.5 8.9688 -2.5 8.125 Q-2.5 7.2344 -3.1328 6.625 Q-3.7656 6.0156 -4.7812 6.0156 Q-5.8594 6.0156 -6.5078 6.6641 Q-7.1562 7.3125 -7.1719 8.4531 L-8.7031 8.2969 Q-8.5469 6.5781 -7.5156 5.6797 Q-6.4844 4.7812 -4.75 4.7812 Q-3 4.7812 -1.9766 5.75 Q-0.9531 6.7188 -0.9531 8.1562 Q-0.9531 8.8906 -1.2578 9.5938 Q-1.5625 10.2969 -2.25 11.0781 Q-2.9375 11.8594 -4.5469 13.2188 Q-5.8906 14.3594 -6.2734 14.7578 Q-6.6562 15.1562 -6.9062 15.5625 L-0.9375 15.5625 ZM0.4665 11 Q0.4665 8.8438 0.9118 7.5234 Q1.3572 6.2031 2.2322 5.4922 Q3.1072 4.7812 4.4353 4.7812 Q5.4197 4.7812 6.154 5.1719 Q6.8884 5.5625 7.3728 6.3125 Q7.8572 7.0625 8.1306 8.125 Q8.404 9.1875 8.404 11 Q8.404 13.1406 7.9665 14.4531 Q7.529 15.7656 6.654 16.4844 Q5.779 17.2031 4.4353 17.2031 Q2.6697 17.2031 1.6697 15.9531 Q0.4665 14.4219 0.4665 11 ZM1.9978 11 Q1.9978 14 2.7009 14.9922 Q3.404 15.9844 4.4353 15.9844 Q5.4665 15.9844 6.1697 14.9844 Q6.8728 13.9844 6.8728 11 Q6.8728 8 6.1697 7.0078 Q5.4665 6.0156 4.4197 6.0156 Q3.3884 6.0156 2.779 6.8906 Q1.9978 8 1.9978 11 Z"
    /></g
    ><g transform="translate(287.5714,451.6668)" style="font-size:16.6667px; fill:rgb(38,38,38); text-rendering:geometricPrecision; image-rendering:optimizeQuality; color-rendering:optimizeQuality; font-family:'SansSerif'; stroke:rgb(38,38,38); color-interpolation:linearRGB;"
    ><path style="stroke:none;" d="M-0.9375 15.5625 L-0.9375 17 L-8.9844 17 Q-9 16.4531 -8.8125 15.9688 Q-8.5 15.1406 -7.8281 14.3438 Q-7.1562 13.5469 -5.875 12.5 Q-3.8906 10.875 -3.1953 9.9219 Q-2.5 8.9688 -2.5 8.125 Q-2.5 7.2344 -3.1328 6.625 Q-3.7656 6.0156 -4.7812 6.0156 Q-5.8594 6.0156 -6.5078 6.6641 Q-7.1562 7.3125 -7.1719 8.4531 L-8.7031 8.2969 Q-8.5469 6.5781 -7.5156 5.6797 Q-6.4844 4.7812 -4.75 4.7812 Q-3 4.7812 -1.9766 5.75 Q-0.9531 6.7188 -0.9531 8.1562 Q-0.9531 8.8906 -1.2578 9.5938 Q-1.5625 10.2969 -2.25 11.0781 Q-2.9375 11.8594 -4.5469 13.2188 Q-5.8906 14.3594 -6.2734 14.7578 Q-6.6562 15.1562 -6.9062 15.5625 L-0.9375 15.5625 ZM0.4665 13.8125 L2.0447 13.6719 Q2.2165 14.8281 2.8493 15.4062 Q3.4822 15.9844 4.3728 15.9844 Q5.4509 15.9844 6.2009 15.1719 Q6.9509 14.3594 6.9509 13 Q6.9509 11.7344 6.2322 10.9922 Q5.5134 10.25 4.3572 10.25 Q3.6384 10.25 3.0525 10.5781 Q2.4665 10.9062 2.1384 11.4375 L0.7322 11.25 L1.9197 5 L7.9665 5 L7.9665 6.4219 L3.1072 6.4219 L2.4509 9.6875 Q3.5447 8.9375 4.7478 8.9375 Q6.3415 8.9375 7.4431 10.0391 Q8.5447 11.1406 8.5447 12.875 Q8.5447 14.5312 7.5759 15.7344 Q6.404 17.2031 4.3728 17.2031 Q2.7165 17.2031 1.6697 16.2734 Q0.6228 15.3438 0.4665 13.8125 Z"
    /></g
    ><g transform="translate(342.7143,451.6668)" style="font-size:16.6667px; fill:rgb(38,38,38); text-rendering:geometricPrecision; image-rendering:optimizeQuality; color-rendering:optimizeQuality; font-family:'SansSerif'; stroke:rgb(38,38,38); color-interpolation:linearRGB;"
    ><path style="stroke:none;" d="M-8.7812 13.7812 L-7.2969 13.5938 Q-7.0312 14.8594 -6.4141 15.4219 Q-5.7969 15.9844 -4.9062 15.9844 Q-3.8594 15.9844 -3.1328 15.25 Q-2.4062 14.5156 -2.4062 13.4375 Q-2.4062 12.4062 -3.0781 11.7422 Q-3.75 11.0781 -4.7812 11.0781 Q-5.2031 11.0781 -5.8438 11.2344 L-5.6719 9.9219 Q-5.5312 9.9375 -5.4375 9.9375 Q-4.4844 9.9375 -3.7188 9.4453 Q-2.9531 8.9531 -2.9531 7.9062 Q-2.9531 7.0938 -3.5078 6.5547 Q-4.0625 6.0156 -4.9375 6.0156 Q-5.8125 6.0156 -6.3906 6.5625 Q-6.9688 7.1094 -7.1406 8.2031 L-8.6406 7.9375 Q-8.3594 6.4375 -7.3906 5.6094 Q-6.4219 4.7812 -4.9688 4.7812 Q-3.9844 4.7812 -3.1406 5.2109 Q-2.2969 5.6406 -1.8594 6.375 Q-1.4219 7.1094 -1.4219 7.9375 Q-1.4219 8.7344 -1.8438 9.3828 Q-2.2656 10.0312 -3.0938 10.4062 Q-2.0156 10.6562 -1.4141 11.4453 Q-0.8125 12.2344 -0.8125 13.4062 Q-0.8125 15 -1.9766 16.1094 Q-3.1406 17.2188 -4.9219 17.2188 Q-6.5156 17.2188 -7.5781 16.2656 Q-8.6406 15.3125 -8.7812 13.7812 ZM0.4665 11 Q0.4665 8.8438 0.9118 7.5234 Q1.3572 6.2031 2.2322 5.4922 Q3.1072 4.7812 4.4353 4.7812 Q5.4197 4.7812 6.154 5.1719 Q6.8884 5.5625 7.3728 6.3125 Q7.8572 7.0625 8.1306 8.125 Q8.404 9.1875 8.404 11 Q8.404 13.1406 7.9665 14.4531 Q7.529 15.7656 6.654 16.4844 Q5.779 17.2031 4.4353 17.2031 Q2.6697 17.2031 1.6697 15.9531 Q0.4665 14.4219 0.4665 11 ZM1.9978 11 Q1.9978 14 2.7009 14.9922 Q3.404 15.9844 4.4353 15.9844 Q5.4665 15.9844 6.1697 14.9844 Q6.8728 13.9844 6.8728 11 Q6.8728 8 6.1697 7.0078 Q5.4665 6.0156 4.4197 6.0156 Q3.3884 6.0156 2.779 6.8906 Q1.9978 8 1.9978 11 Z"
    /></g
    ><g transform="translate(397.8571,451.6668)" style="font-size:16.6667px; fill:rgb(38,38,38); text-rendering:geometricPrecision; image-rendering:optimizeQuality; color-rendering:optimizeQuality; font-family:'SansSerif'; stroke:rgb(38,38,38); color-interpolation:linearRGB;"
    ><path style="stroke:none;" d="M-8.7812 13.7812 L-7.2969 13.5938 Q-7.0312 14.8594 -6.4141 15.4219 Q-5.7969 15.9844 -4.9062 15.9844 Q-3.8594 15.9844 -3.1328 15.25 Q-2.4062 14.5156 -2.4062 13.4375 Q-2.4062 12.4062 -3.0781 11.7422 Q-3.75 11.0781 -4.7812 11.0781 Q-5.2031 11.0781 -5.8438 11.2344 L-5.6719 9.9219 Q-5.5312 9.9375 -5.4375 9.9375 Q-4.4844 9.9375 -3.7188 9.4453 Q-2.9531 8.9531 -2.9531 7.9062 Q-2.9531 7.0938 -3.5078 6.5547 Q-4.0625 6.0156 -4.9375 6.0156 Q-5.8125 6.0156 -6.3906 6.5625 Q-6.9688 7.1094 -7.1406 8.2031 L-8.6406 7.9375 Q-8.3594 6.4375 -7.3906 5.6094 Q-6.4219 4.7812 -4.9688 4.7812 Q-3.9844 4.7812 -3.1406 5.2109 Q-2.2969 5.6406 -1.8594 6.375 Q-1.4219 7.1094 -1.4219 7.9375 Q-1.4219 8.7344 -1.8438 9.3828 Q-2.2656 10.0312 -3.0938 10.4062 Q-2.0156 10.6562 -1.4141 11.4453 Q-0.8125 12.2344 -0.8125 13.4062 Q-0.8125 15 -1.9766 16.1094 Q-3.1406 17.2188 -4.9219 17.2188 Q-6.5156 17.2188 -7.5781 16.2656 Q-8.6406 15.3125 -8.7812 13.7812 ZM0.4665 13.8125 L2.0447 13.6719 Q2.2165 14.8281 2.8493 15.4062 Q3.4822 15.9844 4.3728 15.9844 Q5.4509 15.9844 6.2009 15.1719 Q6.9509 14.3594 6.9509 13 Q6.9509 11.7344 6.2322 10.9922 Q5.5134 10.25 4.3572 10.25 Q3.6384 10.25 3.0525 10.5781 Q2.4665 10.9062 2.1384 11.4375 L0.7322 11.25 L1.9197 5 L7.9665 5 L7.9665 6.4219 L3.1072 6.4219 L2.4509 9.6875 Q3.5447 8.9375 4.7478 8.9375 Q6.3415 8.9375 7.4431 10.0391 Q8.5447 11.1406 8.5447 12.875 Q8.5447 14.5312 7.5759 15.7344 Q6.404 17.2031 4.3728 17.2031 Q2.7165 17.2031 1.6697 16.2734 Q0.6228 15.3438 0.4665 13.8125 Z"
    /></g
    ><g transform="translate(453,451.6668)" style="font-size:16.6667px; fill:rgb(38,38,38); text-rendering:geometricPrecision; image-rendering:optimizeQuality; color-rendering:optimizeQuality; font-family:'SansSerif'; stroke:rgb(38,38,38); color-interpolation:linearRGB;"
    ><path style="stroke:none;" d="M-4 17 L-4 14.0938 L-9.2812 14.0938 L-9.2812 12.7188 L-3.7344 4.8281 L-2.5156 4.8281 L-2.5156 12.7188 L-0.8594 12.7188 L-0.8594 14.0938 L-2.5156 14.0938 L-2.5156 17 L-4 17 ZM-4 12.7188 L-4 7.2344 L-7.8125 12.7188 L-4 12.7188 ZM0.4665 11 Q0.4665 8.8438 0.9118 7.5234 Q1.3572 6.2031 2.2322 5.4922 Q3.1072 4.7812 4.4353 4.7812 Q5.4197 4.7812 6.154 5.1719 Q6.8884 5.5625 7.3728 6.3125 Q7.8572 7.0625 8.1306 8.125 Q8.404 9.1875 8.404 11 Q8.404 13.1406 7.9665 14.4531 Q7.529 15.7656 6.654 16.4844 Q5.779 17.2031 4.4353 17.2031 Q2.6697 17.2031 1.6697 15.9531 Q0.4665 14.4219 0.4665 11 ZM1.9978 11 Q1.9978 14 2.7009 14.9922 Q3.404 15.9844 4.4353 15.9844 Q5.4665 15.9844 6.1697 14.9844 Q6.8728 13.9844 6.8728 11 Q6.8728 8 6.1697 7.0078 Q5.4665 6.0156 4.4197 6.0156 Q3.3884 6.0156 2.779 6.8906 Q1.9978 8 1.9978 11 Z"
    /></g
    ><g transform="translate(260.0002,474.3334)" style="font-size:18.3333px; fill:rgb(38,38,38); text-rendering:geometricPrecision; image-rendering:optimizeQuality; color-rendering:optimizeQuality; font-family:'mwa_cmr10'; stroke:rgb(38,38,38); color-interpolation:linearRGB;"
    ><path style="stroke:none;" d="M-43.5551 15.3999 L-43.5551 14.7593 Q-41.6957 14.7593 -41.6957 14.1968 L-41.6957 4.3062 Q-41.6957 3.7437 -43.5551 3.7437 L-43.5551 3.1031 L-33.6176 3.1031 L-33.1176 7.2281 L-33.6488 7.2281 Q-33.7582 6.0874 -33.9691 5.4312 Q-34.1801 4.7749 -34.5785 4.4077 Q-34.9769 4.0406 -35.6332 3.8921 Q-36.2894 3.7437 -37.4613 3.7437 L-39.1019 3.7437 Q-39.4301 3.7437 -39.6098 3.7671 Q-39.7894 3.7906 -39.8988 3.9156 Q-40.0082 4.0406 -40.0082 4.3062 L-40.0082 8.9468 L-38.7426 8.9468 Q-37.8207 8.9468 -37.391 8.7827 Q-36.9613 8.6187 -36.7973 8.189 Q-36.6332 7.7593 -36.6332 6.8374 L-36.1176 6.8374 L-36.1176 11.6656 L-36.6332 11.6656 Q-36.6332 10.7437 -36.7973 10.314 Q-36.9613 9.8843 -37.391 9.7202 Q-37.8207 9.5562 -38.7426 9.5562 L-40.0082 9.5562 L-40.0082 14.1968 Q-40.0082 14.7593 -37.7113 14.7593 L-37.7113 15.3999 L-43.5551 15.3999 Z"
      /><path style="stroke:none;" d="M-31.1187 15.6499 L-31.1187 11.4468 Q-31.1187 11.3062 -30.9624 11.3062 L-30.7437 11.3062 Q-30.6968 11.3062 -30.6499 11.3531 Q-30.6031 11.3999 -30.6031 11.4468 Q-30.6031 13.2124 -29.5093 14.189 Q-28.4156 15.1656 -26.6343 15.1656 Q-26.0093 15.1656 -25.4859 14.8062 Q-24.9624 14.4468 -24.6656 13.8609 Q-24.3687 13.2749 -24.3687 12.6499 Q-24.3687 12.1031 -24.5874 11.5874 Q-24.8062 11.0718 -25.2202 10.6968 Q-25.6343 10.3218 -26.1499 10.1968 L-28.4937 9.6187 Q-29.6499 9.3218 -30.3843 8.3687 Q-31.1187 7.4156 -31.1187 6.2281 Q-31.1187 5.2906 -30.6499 4.4702 Q-30.1812 3.6499 -29.3765 3.1812 Q-28.5718 2.7124 -27.6343 2.7124 Q-25.8374 2.7124 -24.7749 3.9312 L-24.0249 2.7593 Q-23.9781 2.7124 -23.8999 2.7124 L-23.7906 2.7124 Q-23.7281 2.7124 -23.6812 2.7515 Q-23.6343 2.7906 -23.6343 2.8531 L-23.6343 7.0249 Q-23.6343 7.1968 -23.7906 7.1968 L-23.9937 7.1968 Q-24.1656 7.1968 -24.1656 7.0249 Q-24.1656 6.5718 -24.314 6.0249 Q-24.4624 5.4781 -24.7359 4.9781 Q-25.0093 4.4781 -25.3374 4.1656 Q-26.1968 3.2906 -27.6343 3.2906 Q-28.2437 3.2906 -28.7671 3.6031 Q-29.2906 3.9156 -29.5952 4.4468 Q-29.8999 4.9781 -29.8999 5.5718 Q-29.8999 6.3531 -29.4234 6.9781 Q-28.9468 7.6031 -28.1656 7.8062 L-25.8374 8.3843 Q-25.2593 8.5249 -24.7437 8.8843 Q-24.2281 9.2437 -23.8843 9.7281 Q-23.5406 10.2124 -23.3452 10.8062 Q-23.1499 11.3999 -23.1499 12.0406 Q-23.1499 13.0093 -23.5952 13.8765 Q-24.0406 14.7437 -24.8609 15.2671 Q-25.6812 15.7906 -26.6343 15.7906 Q-27.2437 15.7906 -27.8687 15.6577 Q-28.4937 15.5249 -29.0171 15.2593 Q-29.5406 14.9937 -29.9781 14.5562 L-30.7281 15.7437 Q-30.7749 15.7906 -30.8531 15.7906 L-30.9624 15.7906 Q-31.1187 15.7906 -31.1187 15.6499 Z"
      /><path style="stroke:none;" d="M-21.4022 15.3999 L-21.4022 14.7593 Q-19.5428 14.7593 -19.5428 14.1968 L-19.5428 4.3062 Q-19.5428 3.7437 -21.4022 3.7437 L-21.4022 3.1031 L-11.2147 3.1031 L-10.7147 7.2281 L-11.2303 7.2281 Q-11.4335 5.6656 -11.7772 4.9624 Q-12.121 4.2593 -12.8866 4.0015 Q-13.6522 3.7437 -15.1835 3.7437 L-16.9491 3.7437 Q-17.2772 3.7437 -17.4569 3.7671 Q-17.6366 3.7906 -17.746 3.9156 Q-17.8553 4.0406 -17.8553 4.3062 L-17.8553 8.6968 L-16.5272 8.6968 Q-15.621 8.6968 -15.1678 8.5484 Q-14.7147 8.3999 -14.5428 7.9624 Q-14.371 7.5249 -14.371 6.6031 L-13.8397 6.6031 L-13.8397 11.4312 L-14.371 11.4312 Q-14.371 10.5249 -14.5428 10.0874 Q-14.7147 9.6499 -15.1678 9.4937 Q-15.621 9.3374 -16.5272 9.3374 L-17.8553 9.3374 L-17.8553 14.1968 Q-17.8553 14.5874 -17.6366 14.6734 Q-17.4178 14.7593 -16.9491 14.7593 L-15.0428 14.7593 Q-13.7928 14.7593 -13.0272 14.564 Q-12.2616 14.3687 -11.8319 13.9077 Q-11.4022 13.4468 -11.1678 12.7124 Q-10.9335 11.9781 -10.7303 10.6812 L-10.2147 10.6812 L-10.9647 15.3999 L-21.4022 15.3999 Z"
      /><path style="stroke:none;" d="M-2.8142 15.3999 L-2.8142 14.7593 Q-0.9549 14.7593 -0.9549 13.6968 L-0.9549 3.8374 Q-1.5486 3.7437 -2.8142 3.7437 L-2.8142 3.1031 L0.6389 3.1031 Q0.7326 3.1031 0.7639 3.1812 L7.1389 12.5562 L7.1389 4.8062 Q7.1389 3.7437 5.2795 3.7437 L5.2795 3.1031 L9.5608 3.1031 L9.5608 3.7437 Q7.717 3.7437 7.717 4.8062 L7.717 15.2437 Q7.717 15.2906 7.6467 15.3452 Q7.5764 15.3999 7.5295 15.3999 L7.3108 15.3999 Q7.217 15.3999 7.1858 15.3218 L-0.3767 4.1968 L-0.3767 13.6968 Q-0.3767 14.7593 1.4826 14.7593 L1.4826 15.3999 L-2.8142 15.3999 Z"
      /><path style="stroke:none;" d="M12.2327 13.2437 L12.2327 8.2749 L10.7327 8.2749 L10.7327 7.8062 Q11.9046 7.8062 12.4592 6.7046 Q13.0139 5.6031 13.0139 4.3218 L13.5296 4.3218 L13.5296 7.6343 L16.0764 7.6343 L16.0764 8.2749 L13.5296 8.2749 L13.5296 13.1968 Q13.5296 13.9468 13.7796 14.5093 Q14.0296 15.0718 14.6858 15.0718 Q15.2952 15.0718 15.5686 14.4781 Q15.8421 13.8843 15.8421 13.1968 L15.8421 12.1343 L16.3733 12.1343 L16.3733 13.2437 Q16.3733 13.8062 16.1624 14.3531 Q15.9514 14.8999 15.5452 15.2515 Q15.1389 15.6031 14.5608 15.6031 Q13.4827 15.6031 12.8577 14.9546 Q12.2327 14.3062 12.2327 13.2437 Z"
      /><path style="stroke:none;" d="M18.2373 13.6343 Q18.2373 12.5562 19.0811 11.8843 Q19.9248 11.2124 21.1045 10.939 Q22.2842 10.6656 23.3623 10.6656 L23.3623 9.9312 Q23.3623 9.3999 23.128 8.9156 Q22.8936 8.4312 22.4639 8.1187 Q22.0342 7.8062 21.5186 7.8062 Q20.3155 7.8062 19.7061 8.3374 Q20.0342 8.3374 20.2608 8.5952 Q20.4873 8.8531 20.4873 9.1968 Q20.4873 9.5562 20.2373 9.814 Q19.9873 10.0718 19.628 10.0718 Q19.2686 10.0718 19.0108 9.814 Q18.753 9.5562 18.753 9.1968 Q18.753 8.2593 19.6201 7.7984 Q20.4873 7.3374 21.5186 7.3374 Q22.253 7.3374 22.9873 7.6499 Q23.7217 7.9624 24.1905 8.5406 Q24.6592 9.1187 24.6592 9.8843 L24.6592 13.9468 Q24.6592 14.2906 24.8076 14.5874 Q24.9561 14.8843 25.2842 14.8843 Q25.5811 14.8843 25.7217 14.5874 Q25.8623 14.2906 25.8623 13.9468 L25.8623 12.7906 L26.3936 12.7906 L26.3936 13.9468 Q26.3936 14.3374 26.1826 14.7046 Q25.9717 15.0718 25.6201 15.2906 Q25.2686 15.5093 24.8467 15.5093 Q24.3155 15.5093 23.9326 15.0952 Q23.5498 14.6812 23.5186 14.1187 Q23.1748 14.8062 22.5264 15.2046 Q21.878 15.6031 21.1436 15.6031 Q20.4561 15.6031 19.792 15.3999 Q19.128 15.1968 18.6826 14.7593 Q18.2373 14.3218 18.2373 13.6343 ZM19.7061 13.6343 Q19.7061 14.2593 20.167 14.6968 Q20.628 15.1343 21.2686 15.1343 Q21.8467 15.1343 22.3233 14.8374 Q22.7998 14.5406 23.0811 14.0406 Q23.3623 13.5406 23.3623 12.9937 L23.3623 11.1187 Q22.5342 11.1187 21.6826 11.3843 Q20.8311 11.6499 20.2686 12.2202 Q19.7061 12.7906 19.7061 13.6343 Z"
      /><path style="stroke:none;" d="M27.154 18.8843 L27.154 18.2593 Q27.7634 18.2593 28.1618 18.1577 Q28.5603 18.0562 28.5603 17.6812 L28.5603 9.0093 Q28.5603 8.5249 28.2087 8.3999 Q27.8571 8.2749 27.154 8.2749 L27.154 7.6343 L29.8103 7.4468 L29.8103 8.5562 Q30.3103 8.0093 30.9665 7.7281 Q31.6228 7.4468 32.3571 7.4468 Q33.4196 7.4468 34.2712 8.0249 Q35.1228 8.6031 35.5993 9.5327 Q36.0759 10.4624 36.0759 11.5093 Q36.0759 12.6031 35.5446 13.5406 Q35.0134 14.4781 34.0993 15.0406 Q33.1853 15.6031 32.0759 15.6031 Q30.779 15.6031 29.8728 14.5406 L29.8728 17.6812 Q29.8728 18.0562 30.2712 18.1577 Q30.6696 18.2593 31.279 18.2593 L31.279 18.8843 L27.154 18.8843 ZM29.8728 13.6499 Q30.1853 14.2906 30.7478 14.7124 Q31.3103 15.1343 31.9821 15.1343 Q32.6071 15.1343 33.0837 14.7984 Q33.5603 14.4624 33.8884 13.8999 Q34.2165 13.3374 34.365 12.7124 Q34.5134 12.0874 34.5134 11.5093 Q34.5134 10.7906 34.2556 9.9546 Q33.9978 9.1187 33.4665 8.5406 Q32.9353 7.9624 32.1853 7.9624 Q31.4509 7.9624 30.8415 8.3374 Q30.2321 8.7124 29.8728 9.3531 L29.8728 13.6499 Z"
      /><path style="stroke:none;" d="M37.4642 15.4468 L37.4642 12.5093 Q37.4642 12.3687 37.6205 12.3687 L37.8392 12.3687 Q37.9486 12.3687 37.9799 12.5093 Q38.4955 15.1343 40.4174 15.1343 Q41.2611 15.1343 41.8392 14.7437 Q42.4174 14.3531 42.4174 13.5406 Q42.4174 12.9624 41.9721 12.5562 Q41.5267 12.1499 40.9017 11.9937 L39.6986 11.7593 Q39.0892 11.6343 38.5971 11.3609 Q38.1049 11.0874 37.7846 10.6343 Q37.4642 10.1812 37.4642 9.5874 Q37.4642 8.7906 37.8861 8.2827 Q38.308 7.7749 38.9721 7.5562 Q39.6361 7.3374 40.4174 7.3374 Q41.3392 7.3374 42.0267 7.8218 L42.5424 7.3687 Q42.5424 7.3374 42.6205 7.3374 L42.7611 7.3374 Q42.808 7.3374 42.8549 7.3843 Q42.9017 7.4312 42.9017 7.4781 L42.9017 9.8374 Q42.9017 10.0093 42.7611 10.0093 L42.5424 10.0093 Q42.3861 10.0093 42.3861 9.8374 Q42.3861 8.8999 41.8627 8.3296 Q41.3392 7.7593 40.4017 7.7593 Q39.5892 7.7593 38.9955 8.0562 Q38.4017 8.3531 38.4017 9.0874 Q38.4017 9.5874 38.8236 9.9077 Q39.2455 10.2281 39.8236 10.3687 L41.0424 10.5874 Q41.6674 10.7281 42.1986 11.064 Q42.7299 11.3999 43.0424 11.9077 Q43.3549 12.4156 43.3549 13.0562 Q43.3549 13.7124 43.1283 14.189 Q42.9017 14.6656 42.5033 14.9859 Q42.1049 15.3062 41.558 15.4546 Q41.0111 15.6031 40.4174 15.6031 Q39.2924 15.6031 38.4955 14.8531 L37.8236 15.5562 Q37.8236 15.6031 37.7299 15.6031 L37.6205 15.6031 Q37.4642 15.6031 37.4642 15.4468 Z"
    /></g
    ><g style="fill:rgb(38,38,38); text-rendering:geometricPrecision; image-rendering:optimizeQuality; color-rendering:optimizeQuality; stroke-linejoin:round; stroke:rgb(38,38,38); color-interpolation:linearRGB; stroke-width:0.8333;"
    ><line y2="37" style="fill:none;" x1="67" x2="67" y1="445"
      /><line y2="37" style="fill:none;" x1="453" x2="453" y1="445"
      /><line y2="445" style="fill:none;" x1="67" x2="71.08" y1="445"
      /><line y2="404.1998" style="fill:none;" x1="67" x2="71.08" y1="404.1998"
      /><line y2="363.3997" style="fill:none;" x1="67" x2="71.08" y1="363.3997"
      /><line y2="322.6003" style="fill:none;" x1="67" x2="71.08" y1="322.6003"
      /><line y2="281.8002" style="fill:none;" x1="67" x2="71.08" y1="281.8002"
      /><line y2="241" style="fill:none;" x1="67" x2="71.08" y1="241"
      /><line y2="200.1998" style="fill:none;" x1="67" x2="71.08" y1="200.1998"
      /><line y2="159.3997" style="fill:none;" x1="67" x2="71.08" y1="159.3997"
      /><line y2="118.6003" style="fill:none;" x1="67" x2="71.08" y1="118.6003"
      /><line y2="77.8002" style="fill:none;" x1="67" x2="71.08" y1="77.8002"
      /><line y2="37" style="fill:none;" x1="67" x2="71.08" y1="37"
      /><line y2="445" style="fill:none;" x1="453" x2="448.92" y1="445"
      /><line y2="404.1998" style="fill:none;" x1="453" x2="448.92" y1="404.1998"
      /><line y2="363.3997" style="fill:none;" x1="453" x2="448.92" y1="363.3997"
      /><line y2="322.6003" style="fill:none;" x1="453" x2="448.92" y1="322.6003"
      /><line y2="281.8002" style="fill:none;" x1="453" x2="448.92" y1="281.8002"
      /><line y2="241" style="fill:none;" x1="453" x2="448.92" y1="241"
      /><line y2="200.1998" style="fill:none;" x1="453" x2="448.92" y1="200.1998"
      /><line y2="159.3997" style="fill:none;" x1="453" x2="448.92" y1="159.3997"
      /><line y2="118.6003" style="fill:none;" x1="453" x2="448.92" y1="118.6003"
      /><line y2="77.8002" style="fill:none;" x1="453" x2="448.92" y1="77.8002"
      /><line y2="37" style="fill:none;" x1="453" x2="448.92" y1="37"
    /></g
    ><g transform="translate(60.3333,445)" style="font-size:16.6667px; fill:rgb(38,38,38); text-rendering:geometricPrecision; image-rendering:optimizeQuality; color-rendering:optimizeQuality; font-family:'SansSerif'; stroke:rgb(38,38,38); color-interpolation:linearRGB;"
    ><path style="stroke:none;" d="M-23.0625 3.6875 L-21.6406 3.5469 Q-21.4531 4.5625 -20.9375 5.0234 Q-20.4219 5.4844 -19.6094 5.4844 Q-18.9219 5.4844 -18.4062 5.1641 Q-17.8906 4.8438 -17.5547 4.3203 Q-17.2188 3.7969 -17 2.8984 Q-16.7812 2 -16.7812 1.0781 Q-16.7812 0.9688 -16.7812 0.7656 Q-17.2344 1.4844 -18.0078 1.9297 Q-18.7812 2.375 -19.6875 2.375 Q-21.2031 2.375 -22.25 1.2812 Q-23.2969 0.1875 -23.2969 -1.6094 Q-23.2969 -3.4688 -22.2031 -4.5938 Q-21.1094 -5.7188 -19.4688 -5.7188 Q-18.2812 -5.7188 -17.2969 -5.0781 Q-16.3125 -4.4375 -15.8047 -3.2578 Q-15.2969 -2.0781 -15.2969 0.1719 Q-15.2969 2.5 -15.8047 3.8828 Q-16.3125 5.2656 -17.3125 5.9844 Q-18.3125 6.7031 -19.6562 6.7031 Q-21.0781 6.7031 -21.9844 5.9141 Q-22.8906 5.125 -23.0625 3.6875 ZM-16.9531 -1.6875 Q-16.9531 -2.9688 -17.6406 -3.7266 Q-18.3281 -4.4844 -19.2812 -4.4844 Q-20.2812 -4.4844 -21.0234 -3.6719 Q-21.7656 -2.8594 -21.7656 -1.5625 Q-21.7656 -0.3906 -21.0625 0.3281 Q-20.3594 1.0469 -19.3281 1.0469 Q-18.2812 1.0469 -17.6172 0.3281 Q-16.9531 -0.3906 -16.9531 -1.6875 ZM-13.1897 6.5 L-13.1897 4.7969 L-11.4866 4.7969 L-11.4866 6.5 L-13.1897 6.5 ZM-9.4058 3.3125 L-7.8277 3.1719 Q-7.6558 4.3281 -7.023 4.9062 Q-6.3902 5.4844 -5.4996 5.4844 Q-4.4214 5.4844 -3.6714 4.6719 Q-2.9214 3.8594 -2.9214 2.5 Q-2.9214 1.2344 -3.6402 0.4922 Q-4.3589 -0.25 -5.5152 -0.25 Q-6.2339 -0.25 -6.8199 0.0781 Q-7.4058 0.4062 -7.7339 0.9375 L-9.1402 0.75 L-7.9527 -5.5 L-1.9058 -5.5 L-1.9058 -4.0781 L-6.7652 -4.0781 L-7.4214 -0.8125 Q-6.3277 -1.5625 -5.1246 -1.5625 Q-3.5308 -1.5625 -2.4293 -0.4609 Q-1.3277 0.6406 -1.3277 2.375 Q-1.3277 4.0312 -2.2964 5.2344 Q-3.4683 6.7031 -5.4996 6.7031 Q-7.1558 6.7031 -8.2027 5.7734 Q-9.2496 4.8438 -9.4058 3.3125 Z"
    /></g
    ><g transform="translate(60.3333,404.1998)" style="font-size:16.6667px; fill:rgb(38,38,38); text-rendering:geometricPrecision; image-rendering:optimizeQuality; color-rendering:optimizeQuality; font-family:'SansSerif'; stroke:rgb(38,38,38); color-interpolation:linearRGB;"
    ><path style="stroke:none;" d="M-32.0625 3.6875 L-30.6406 3.5469 Q-30.4531 4.5625 -29.9375 5.0234 Q-29.4219 5.4844 -28.6094 5.4844 Q-27.9219 5.4844 -27.4062 5.1641 Q-26.8906 4.8438 -26.5547 4.3203 Q-26.2188 3.7969 -26 2.8984 Q-25.7812 2 -25.7812 1.0781 Q-25.7812 0.9688 -25.7812 0.7656 Q-26.2344 1.4844 -27.0078 1.9297 Q-27.7812 2.375 -28.6875 2.375 Q-30.2031 2.375 -31.25 1.2812 Q-32.2969 0.1875 -32.2969 -1.6094 Q-32.2969 -3.4688 -31.2031 -4.5938 Q-30.1094 -5.7188 -28.4688 -5.7188 Q-27.2812 -5.7188 -26.2969 -5.0781 Q-25.3125 -4.4375 -24.8047 -3.2578 Q-24.2969 -2.0781 -24.2969 0.1719 Q-24.2969 2.5 -24.8047 3.8828 Q-25.3125 5.2656 -26.3125 5.9844 Q-27.3125 6.7031 -28.6562 6.7031 Q-30.0781 6.7031 -30.9844 5.9141 Q-31.8906 5.125 -32.0625 3.6875 ZM-25.9531 -1.6875 Q-25.9531 -2.9688 -26.6406 -3.7266 Q-27.3281 -4.4844 -28.2812 -4.4844 Q-29.2812 -4.4844 -30.0234 -3.6719 Q-30.7656 -2.8594 -30.7656 -1.5625 Q-30.7656 -0.3906 -30.0625 0.3281 Q-29.3594 1.0469 -28.3281 1.0469 Q-27.2812 1.0469 -26.6172 0.3281 Q-25.9531 -0.3906 -25.9531 -1.6875 ZM-22.1897 6.5 L-22.1897 4.7969 L-20.4866 4.7969 L-20.4866 6.5 L-22.1897 6.5 ZM-18.4058 3.3125 L-16.8277 3.1719 Q-16.6558 4.3281 -16.023 4.9062 Q-15.3902 5.4844 -14.4996 5.4844 Q-13.4214 5.4844 -12.6714 4.6719 Q-11.9214 3.8594 -11.9214 2.5 Q-11.9214 1.2344 -12.6402 0.4922 Q-13.3589 -0.25 -14.5152 -0.25 Q-15.2339 -0.25 -15.8199 0.0781 Q-16.4058 0.4062 -16.7339 0.9375 L-18.1402 0.75 L-16.9527 -5.5 L-10.9058 -5.5 L-10.9058 -4.0781 L-15.7652 -4.0781 L-16.4214 -0.8125 Q-15.3277 -1.5625 -14.1246 -1.5625 Q-12.5308 -1.5625 -11.4293 -0.4609 Q-10.3277 0.6406 -10.3277 2.375 Q-10.3277 4.0312 -11.2964 5.2344 Q-12.4683 6.7031 -14.4996 6.7031 Q-16.1558 6.7031 -17.2027 5.7734 Q-18.2496 4.8438 -18.4058 3.3125 ZM-9.1424 3.3125 L-7.5643 3.1719 Q-7.3924 4.3281 -6.7596 4.9062 Q-6.1268 5.4844 -5.2362 5.4844 Q-4.158 5.4844 -3.408 4.6719 Q-2.658 3.8594 -2.658 2.5 Q-2.658 1.2344 -3.3768 0.4922 Q-4.0955 -0.25 -5.2518 -0.25 Q-5.9705 -0.25 -6.5565 0.0781 Q-7.1424 0.4062 -7.4705 0.9375 L-8.8768 0.75 L-7.6893 -5.5 L-1.6424 -5.5 L-1.6424 -4.0781 L-6.5018 -4.0781 L-7.158 -0.8125 Q-6.0643 -1.5625 -4.8612 -1.5625 Q-3.2674 -1.5625 -2.1658 -0.4609 Q-1.0643 0.6406 -1.0643 2.375 Q-1.0643 4.0312 -2.033 5.2344 Q-3.2049 6.7031 -5.2362 6.7031 Q-6.8924 6.7031 -7.9393 5.7734 Q-8.9862 4.8438 -9.1424 3.3125 Z"
    /></g
    ><g transform="translate(60.3333,363.3997)" style="font-size:16.6667px; fill:rgb(38,38,38); text-rendering:geometricPrecision; image-rendering:optimizeQuality; color-rendering:optimizeQuality; font-family:'SansSerif'; stroke:rgb(38,38,38); color-interpolation:linearRGB;"
    ><path style="stroke:none;" d="M-23.0625 3.6875 L-21.6406 3.5469 Q-21.4531 4.5625 -20.9375 5.0234 Q-20.4219 5.4844 -19.6094 5.4844 Q-18.9219 5.4844 -18.4062 5.1641 Q-17.8906 4.8438 -17.5547 4.3203 Q-17.2188 3.7969 -17 2.8984 Q-16.7812 2 -16.7812 1.0781 Q-16.7812 0.9688 -16.7812 0.7656 Q-17.2344 1.4844 -18.0078 1.9297 Q-18.7812 2.375 -19.6875 2.375 Q-21.2031 2.375 -22.25 1.2812 Q-23.2969 0.1875 -23.2969 -1.6094 Q-23.2969 -3.4688 -22.2031 -4.5938 Q-21.1094 -5.7188 -19.4688 -5.7188 Q-18.2812 -5.7188 -17.2969 -5.0781 Q-16.3125 -4.4375 -15.8047 -3.2578 Q-15.2969 -2.0781 -15.2969 0.1719 Q-15.2969 2.5 -15.8047 3.8828 Q-16.3125 5.2656 -17.3125 5.9844 Q-18.3125 6.7031 -19.6562 6.7031 Q-21.0781 6.7031 -21.9844 5.9141 Q-22.8906 5.125 -23.0625 3.6875 ZM-16.9531 -1.6875 Q-16.9531 -2.9688 -17.6406 -3.7266 Q-18.3281 -4.4844 -19.2812 -4.4844 Q-20.2812 -4.4844 -21.0234 -3.6719 Q-21.7656 -2.8594 -21.7656 -1.5625 Q-21.7656 -0.3906 -21.0625 0.3281 Q-20.3594 1.0469 -19.3281 1.0469 Q-18.2812 1.0469 -17.6172 0.3281 Q-16.9531 -0.3906 -16.9531 -1.6875 ZM-13.1897 6.5 L-13.1897 4.7969 L-11.4866 4.7969 L-11.4866 6.5 L-13.1897 6.5 ZM-1.6558 -2.6875 L-3.1402 -2.5781 Q-3.3277 -3.4531 -3.7027 -3.8438 Q-4.3121 -4.4844 -5.1871 -4.4844 Q-5.9058 -4.4844 -6.4527 -4.0938 Q-7.1558 -3.5781 -7.5621 -2.5938 Q-7.9683 -1.6094 -7.9839 0.2188 Q-7.4371 -0.5938 -6.6636 -0.9922 Q-5.8902 -1.3906 -5.0308 -1.3906 Q-3.5308 -1.3906 -2.4839 -0.2891 Q-1.4371 0.8125 -1.4371 2.5469 Q-1.4371 3.6875 -1.9293 4.6719 Q-2.4214 5.6562 -3.2886 6.1797 Q-4.1558 6.7031 -5.2496 6.7031 Q-7.1089 6.7031 -8.2886 5.3281 Q-9.4683 3.9531 -9.4683 0.8125 Q-9.4683 -2.7188 -8.1714 -4.3281 Q-7.0308 -5.7188 -5.1089 -5.7188 Q-3.6714 -5.7188 -2.7496 -4.9141 Q-1.8277 -4.1094 -1.6558 -2.6875 ZM-7.7496 2.5625 Q-7.7496 3.3281 -7.4214 4.0312 Q-7.0933 4.7344 -6.5074 5.1094 Q-5.9214 5.4844 -5.2652 5.4844 Q-4.3277 5.4844 -3.648 4.7188 Q-2.9683 3.9531 -2.9683 2.6406 Q-2.9683 1.375 -3.6402 0.6484 Q-4.3121 -0.0781 -5.3277 -0.0781 Q-6.3433 -0.0781 -7.0464 0.6484 Q-7.7496 1.375 -7.7496 2.5625 Z"
    /></g
    ><g transform="translate(60.3333,322.6003)" style="font-size:16.6667px; fill:rgb(38,38,38); text-rendering:geometricPrecision; image-rendering:optimizeQuality; color-rendering:optimizeQuality; font-family:'SansSerif'; stroke:rgb(38,38,38); color-interpolation:linearRGB;"
    ><path style="stroke:none;" d="M-32.0625 3.6875 L-30.6406 3.5469 Q-30.4531 4.5625 -29.9375 5.0234 Q-29.4219 5.4844 -28.6094 5.4844 Q-27.9219 5.4844 -27.4062 5.1641 Q-26.8906 4.8438 -26.5547 4.3203 Q-26.2188 3.7969 -26 2.8984 Q-25.7812 2 -25.7812 1.0781 Q-25.7812 0.9688 -25.7812 0.7656 Q-26.2344 1.4844 -27.0078 1.9297 Q-27.7812 2.375 -28.6875 2.375 Q-30.2031 2.375 -31.25 1.2812 Q-32.2969 0.1875 -32.2969 -1.6094 Q-32.2969 -3.4688 -31.2031 -4.5938 Q-30.1094 -5.7188 -28.4688 -5.7188 Q-27.2812 -5.7188 -26.2969 -5.0781 Q-25.3125 -4.4375 -24.8047 -3.2578 Q-24.2969 -2.0781 -24.2969 0.1719 Q-24.2969 2.5 -24.8047 3.8828 Q-25.3125 5.2656 -26.3125 5.9844 Q-27.3125 6.7031 -28.6562 6.7031 Q-30.0781 6.7031 -30.9844 5.9141 Q-31.8906 5.125 -32.0625 3.6875 ZM-25.9531 -1.6875 Q-25.9531 -2.9688 -26.6406 -3.7266 Q-27.3281 -4.4844 -28.2812 -4.4844 Q-29.2812 -4.4844 -30.0234 -3.6719 Q-30.7656 -2.8594 -30.7656 -1.5625 Q-30.7656 -0.3906 -30.0625 0.3281 Q-29.3594 1.0469 -28.3281 1.0469 Q-27.2812 1.0469 -26.6172 0.3281 Q-25.9531 -0.3906 -25.9531 -1.6875 ZM-22.1897 6.5 L-22.1897 4.7969 L-20.4866 4.7969 L-20.4866 6.5 L-22.1897 6.5 ZM-10.6558 -2.6875 L-12.1402 -2.5781 Q-12.3277 -3.4531 -12.7027 -3.8438 Q-13.3121 -4.4844 -14.1871 -4.4844 Q-14.9058 -4.4844 -15.4527 -4.0938 Q-16.1558 -3.5781 -16.5621 -2.5938 Q-16.9683 -1.6094 -16.9839 0.2188 Q-16.4371 -0.5938 -15.6636 -0.9922 Q-14.8902 -1.3906 -14.0308 -1.3906 Q-12.5308 -1.3906 -11.4839 -0.2891 Q-10.4371 0.8125 -10.4371 2.5469 Q-10.4371 3.6875 -10.9293 4.6719 Q-11.4214 5.6562 -12.2886 6.1797 Q-13.1558 6.7031 -14.2496 6.7031 Q-16.1089 6.7031 -17.2886 5.3281 Q-18.4683 3.9531 -18.4683 0.8125 Q-18.4683 -2.7188 -17.1714 -4.3281 Q-16.0308 -5.7188 -14.1089 -5.7188 Q-12.6714 -5.7188 -11.7496 -4.9141 Q-10.8277 -4.1094 -10.6558 -2.6875 ZM-16.7496 2.5625 Q-16.7496 3.3281 -16.4214 4.0312 Q-16.0933 4.7344 -15.5074 5.1094 Q-14.9214 5.4844 -14.2652 5.4844 Q-13.3277 5.4844 -12.648 4.7188 Q-11.9683 3.9531 -11.9683 2.6406 Q-11.9683 1.375 -12.6402 0.6484 Q-13.3121 -0.0781 -14.3277 -0.0781 Q-15.3433 -0.0781 -16.0464 0.6484 Q-16.7496 1.375 -16.7496 2.5625 ZM-9.1424 3.3125 L-7.5643 3.1719 Q-7.3924 4.3281 -6.7596 4.9062 Q-6.1268 5.4844 -5.2362 5.4844 Q-4.158 5.4844 -3.408 4.6719 Q-2.658 3.8594 -2.658 2.5 Q-2.658 1.2344 -3.3768 0.4922 Q-4.0955 -0.25 -5.2518 -0.25 Q-5.9705 -0.25 -6.5565 0.0781 Q-7.1424 0.4062 -7.4705 0.9375 L-8.8768 0.75 L-7.6893 -5.5 L-1.6424 -5.5 L-1.6424 -4.0781 L-6.5018 -4.0781 L-7.158 -0.8125 Q-6.0643 -1.5625 -4.8612 -1.5625 Q-3.2674 -1.5625 -2.1658 -0.4609 Q-1.0643 0.6406 -1.0643 2.375 Q-1.0643 4.0312 -2.033 5.2344 Q-3.2049 6.7031 -5.2362 6.7031 Q-6.8924 6.7031 -7.9393 5.7734 Q-8.9862 4.8438 -9.1424 3.3125 Z"
    /></g
    ><g transform="translate(60.3333,281.8002)" style="font-size:16.6667px; fill:rgb(38,38,38); text-rendering:geometricPrecision; image-rendering:optimizeQuality; color-rendering:optimizeQuality; font-family:'SansSerif'; stroke:rgb(38,38,38); color-interpolation:linearRGB;"
    ><path style="stroke:none;" d="M-23.0625 3.6875 L-21.6406 3.5469 Q-21.4531 4.5625 -20.9375 5.0234 Q-20.4219 5.4844 -19.6094 5.4844 Q-18.9219 5.4844 -18.4062 5.1641 Q-17.8906 4.8438 -17.5547 4.3203 Q-17.2188 3.7969 -17 2.8984 Q-16.7812 2 -16.7812 1.0781 Q-16.7812 0.9688 -16.7812 0.7656 Q-17.2344 1.4844 -18.0078 1.9297 Q-18.7812 2.375 -19.6875 2.375 Q-21.2031 2.375 -22.25 1.2812 Q-23.2969 0.1875 -23.2969 -1.6094 Q-23.2969 -3.4688 -22.2031 -4.5938 Q-21.1094 -5.7188 -19.4688 -5.7188 Q-18.2812 -5.7188 -17.2969 -5.0781 Q-16.3125 -4.4375 -15.8047 -3.2578 Q-15.2969 -2.0781 -15.2969 0.1719 Q-15.2969 2.5 -15.8047 3.8828 Q-16.3125 5.2656 -17.3125 5.9844 Q-18.3125 6.7031 -19.6562 6.7031 Q-21.0781 6.7031 -21.9844 5.9141 Q-22.8906 5.125 -23.0625 3.6875 ZM-16.9531 -1.6875 Q-16.9531 -2.9688 -17.6406 -3.7266 Q-18.3281 -4.4844 -19.2812 -4.4844 Q-20.2812 -4.4844 -21.0234 -3.6719 Q-21.7656 -2.8594 -21.7656 -1.5625 Q-21.7656 -0.3906 -21.0625 0.3281 Q-20.3594 1.0469 -19.3281 1.0469 Q-18.2812 1.0469 -17.6172 0.3281 Q-16.9531 -0.3906 -16.9531 -1.6875 ZM-13.1897 6.5 L-13.1897 4.7969 L-11.4866 4.7969 L-11.4866 6.5 L-13.1897 6.5 ZM-9.2964 -4.0781 L-9.2964 -5.5156 L-1.4214 -5.5156 L-1.4214 -4.3438 Q-2.5933 -3.1094 -3.7339 -1.0625 Q-4.8746 0.9844 -5.4996 3.1562 Q-5.9371 4.6875 -6.0621 6.5 L-7.6089 6.5 Q-7.5777 5.0625 -7.0386 3.0312 Q-6.4996 1 -5.4918 -0.8906 Q-4.4839 -2.7812 -3.3433 -4.0781 L-9.2964 -4.0781 Z"
    /></g
    ><g transform="translate(60.3333,241)" style="font-size:16.6667px; fill:rgb(38,38,38); text-rendering:geometricPrecision; image-rendering:optimizeQuality; color-rendering:optimizeQuality; font-family:'SansSerif'; stroke:rgb(38,38,38); color-interpolation:linearRGB;"
    ><path style="stroke:none;" d="M-32.0625 3.6875 L-30.6406 3.5469 Q-30.4531 4.5625 -29.9375 5.0234 Q-29.4219 5.4844 -28.6094 5.4844 Q-27.9219 5.4844 -27.4062 5.1641 Q-26.8906 4.8438 -26.5547 4.3203 Q-26.2188 3.7969 -26 2.8984 Q-25.7812 2 -25.7812 1.0781 Q-25.7812 0.9688 -25.7812 0.7656 Q-26.2344 1.4844 -27.0078 1.9297 Q-27.7812 2.375 -28.6875 2.375 Q-30.2031 2.375 -31.25 1.2812 Q-32.2969 0.1875 -32.2969 -1.6094 Q-32.2969 -3.4688 -31.2031 -4.5938 Q-30.1094 -5.7188 -28.4688 -5.7188 Q-27.2812 -5.7188 -26.2969 -5.0781 Q-25.3125 -4.4375 -24.8047 -3.2578 Q-24.2969 -2.0781 -24.2969 0.1719 Q-24.2969 2.5 -24.8047 3.8828 Q-25.3125 5.2656 -26.3125 5.9844 Q-27.3125 6.7031 -28.6562 6.7031 Q-30.0781 6.7031 -30.9844 5.9141 Q-31.8906 5.125 -32.0625 3.6875 ZM-25.9531 -1.6875 Q-25.9531 -2.9688 -26.6406 -3.7266 Q-27.3281 -4.4844 -28.2812 -4.4844 Q-29.2812 -4.4844 -30.0234 -3.6719 Q-30.7656 -2.8594 -30.7656 -1.5625 Q-30.7656 -0.3906 -30.0625 0.3281 Q-29.3594 1.0469 -28.3281 1.0469 Q-27.2812 1.0469 -26.6172 0.3281 Q-25.9531 -0.3906 -25.9531 -1.6875 ZM-22.1897 6.5 L-22.1897 4.7969 L-20.4866 4.7969 L-20.4866 6.5 L-22.1897 6.5 ZM-18.2964 -4.0781 L-18.2964 -5.5156 L-10.4214 -5.5156 L-10.4214 -4.3438 Q-11.5933 -3.1094 -12.7339 -1.0625 Q-13.8746 0.9844 -14.4996 3.1562 Q-14.9371 4.6875 -15.0621 6.5 L-16.6089 6.5 Q-16.5777 5.0625 -16.0386 3.0312 Q-15.4996 1 -14.4918 -0.8906 Q-13.4839 -2.7812 -12.3433 -4.0781 L-18.2964 -4.0781 ZM-9.1424 3.3125 L-7.5643 3.1719 Q-7.3924 4.3281 -6.7596 4.9062 Q-6.1268 5.4844 -5.2362 5.4844 Q-4.158 5.4844 -3.408 4.6719 Q-2.658 3.8594 -2.658 2.5 Q-2.658 1.2344 -3.3768 0.4922 Q-4.0955 -0.25 -5.2518 -0.25 Q-5.9705 -0.25 -6.5565 0.0781 Q-7.1424 0.4062 -7.4705 0.9375 L-8.8768 0.75 L-7.6893 -5.5 L-1.6424 -5.5 L-1.6424 -4.0781 L-6.5018 -4.0781 L-7.158 -0.8125 Q-6.0643 -1.5625 -4.8612 -1.5625 Q-3.2674 -1.5625 -2.1658 -0.4609 Q-1.0643 0.6406 -1.0643 2.375 Q-1.0643 4.0312 -2.033 5.2344 Q-3.2049 6.7031 -5.2362 6.7031 Q-6.8924 6.7031 -7.9393 5.7734 Q-8.9862 4.8438 -9.1424 3.3125 Z"
    /></g
    ><g transform="translate(60.3333,200.1998)" style="font-size:16.6667px; fill:rgb(38,38,38); text-rendering:geometricPrecision; image-rendering:optimizeQuality; color-rendering:optimizeQuality; font-family:'SansSerif'; stroke:rgb(38,38,38); color-interpolation:linearRGB;"
    ><path style="stroke:none;" d="M-23.0625 3.6875 L-21.6406 3.5469 Q-21.4531 4.5625 -20.9375 5.0234 Q-20.4219 5.4844 -19.6094 5.4844 Q-18.9219 5.4844 -18.4062 5.1641 Q-17.8906 4.8438 -17.5547 4.3203 Q-17.2188 3.7969 -17 2.8984 Q-16.7812 2 -16.7812 1.0781 Q-16.7812 0.9688 -16.7812 0.7656 Q-17.2344 1.4844 -18.0078 1.9297 Q-18.7812 2.375 -19.6875 2.375 Q-21.2031 2.375 -22.25 1.2812 Q-23.2969 0.1875 -23.2969 -1.6094 Q-23.2969 -3.4688 -22.2031 -4.5938 Q-21.1094 -5.7188 -19.4688 -5.7188 Q-18.2812 -5.7188 -17.2969 -5.0781 Q-16.3125 -4.4375 -15.8047 -3.2578 Q-15.2969 -2.0781 -15.2969 0.1719 Q-15.2969 2.5 -15.8047 3.8828 Q-16.3125 5.2656 -17.3125 5.9844 Q-18.3125 6.7031 -19.6562 6.7031 Q-21.0781 6.7031 -21.9844 5.9141 Q-22.8906 5.125 -23.0625 3.6875 ZM-16.9531 -1.6875 Q-16.9531 -2.9688 -17.6406 -3.7266 Q-18.3281 -4.4844 -19.2812 -4.4844 Q-20.2812 -4.4844 -21.0234 -3.6719 Q-21.7656 -2.8594 -21.7656 -1.5625 Q-21.7656 -0.3906 -21.0625 0.3281 Q-20.3594 1.0469 -19.3281 1.0469 Q-18.2812 1.0469 -17.6172 0.3281 Q-16.9531 -0.3906 -16.9531 -1.6875 ZM-13.1897 6.5 L-13.1897 4.7969 L-11.4866 4.7969 L-11.4866 6.5 L-13.1897 6.5 ZM-7.1089 -0.0938 Q-8.0308 -0.4375 -8.4839 -1.0703 Q-8.9371 -1.7031 -8.9371 -2.5781 Q-8.9371 -3.9062 -7.9761 -4.8125 Q-7.0152 -5.7188 -5.4371 -5.7188 Q-3.8433 -5.7188 -2.8746 -4.7969 Q-1.9058 -3.875 -1.9058 -2.5469 Q-1.9058 -1.6875 -2.3433 -1.0625 Q-2.7808 -0.4375 -3.6871 -0.0938 Q-2.5777 0.2656 -1.9918 1.0781 Q-1.4058 1.8906 -1.4058 3.0156 Q-1.4058 4.5781 -2.5074 5.6406 Q-3.6089 6.7031 -5.4058 6.7031 Q-7.2183 6.7031 -8.3199 5.6406 Q-9.4214 4.5781 -9.4214 2.9844 Q-9.4214 1.7969 -8.8199 0.9922 Q-8.2183 0.1875 -7.1089 -0.0938 ZM-7.4058 -2.625 Q-7.4058 -1.7656 -6.8511 -1.2188 Q-6.2964 -0.6719 -5.4058 -0.6719 Q-4.5464 -0.6719 -3.9918 -1.2188 Q-3.4371 -1.7656 -3.4371 -2.5469 Q-3.4371 -3.375 -4.0074 -3.9297 Q-4.5777 -4.4844 -5.4214 -4.4844 Q-6.2808 -4.4844 -6.8433 -3.9375 Q-7.4058 -3.3906 -7.4058 -2.625 ZM-7.8902 2.9844 Q-7.8902 3.625 -7.5855 4.2266 Q-7.2808 4.8281 -6.6793 5.1562 Q-6.0777 5.4844 -5.3902 5.4844 Q-4.3277 5.4844 -3.6246 4.7891 Q-2.9214 4.0938 -2.9214 3.0312 Q-2.9214 1.9531 -3.6402 1.25 Q-4.3589 0.5469 -5.4371 0.5469 Q-6.4996 0.5469 -7.1949 1.2422 Q-7.8902 1.9375 -7.8902 2.9844 Z"
    /></g
    ><g transform="translate(60.3333,159.3997)" style="font-size:16.6667px; fill:rgb(38,38,38); text-rendering:geometricPrecision; image-rendering:optimizeQuality; color-rendering:optimizeQuality; font-family:'SansSerif'; stroke:rgb(38,38,38); color-interpolation:linearRGB;"
    ><path style="stroke:none;" d="M-32.0625 3.6875 L-30.6406 3.5469 Q-30.4531 4.5625 -29.9375 5.0234 Q-29.4219 5.4844 -28.6094 5.4844 Q-27.9219 5.4844 -27.4062 5.1641 Q-26.8906 4.8438 -26.5547 4.3203 Q-26.2188 3.7969 -26 2.8984 Q-25.7812 2 -25.7812 1.0781 Q-25.7812 0.9688 -25.7812 0.7656 Q-26.2344 1.4844 -27.0078 1.9297 Q-27.7812 2.375 -28.6875 2.375 Q-30.2031 2.375 -31.25 1.2812 Q-32.2969 0.1875 -32.2969 -1.6094 Q-32.2969 -3.4688 -31.2031 -4.5938 Q-30.1094 -5.7188 -28.4688 -5.7188 Q-27.2812 -5.7188 -26.2969 -5.0781 Q-25.3125 -4.4375 -24.8047 -3.2578 Q-24.2969 -2.0781 -24.2969 0.1719 Q-24.2969 2.5 -24.8047 3.8828 Q-25.3125 5.2656 -26.3125 5.9844 Q-27.3125 6.7031 -28.6562 6.7031 Q-30.0781 6.7031 -30.9844 5.9141 Q-31.8906 5.125 -32.0625 3.6875 ZM-25.9531 -1.6875 Q-25.9531 -2.9688 -26.6406 -3.7266 Q-27.3281 -4.4844 -28.2812 -4.4844 Q-29.2812 -4.4844 -30.0234 -3.6719 Q-30.7656 -2.8594 -30.7656 -1.5625 Q-30.7656 -0.3906 -30.0625 0.3281 Q-29.3594 1.0469 -28.3281 1.0469 Q-27.2812 1.0469 -26.6172 0.3281 Q-25.9531 -0.3906 -25.9531 -1.6875 ZM-22.1897 6.5 L-22.1897 4.7969 L-20.4866 4.7969 L-20.4866 6.5 L-22.1897 6.5 ZM-16.1089 -0.0938 Q-17.0308 -0.4375 -17.4839 -1.0703 Q-17.9371 -1.7031 -17.9371 -2.5781 Q-17.9371 -3.9062 -16.9761 -4.8125 Q-16.0152 -5.7188 -14.4371 -5.7188 Q-12.8433 -5.7188 -11.8746 -4.7969 Q-10.9058 -3.875 -10.9058 -2.5469 Q-10.9058 -1.6875 -11.3433 -1.0625 Q-11.7808 -0.4375 -12.6871 -0.0938 Q-11.5777 0.2656 -10.9918 1.0781 Q-10.4058 1.8906 -10.4058 3.0156 Q-10.4058 4.5781 -11.5074 5.6406 Q-12.6089 6.7031 -14.4058 6.7031 Q-16.2183 6.7031 -17.3199 5.6406 Q-18.4214 4.5781 -18.4214 2.9844 Q-18.4214 1.7969 -17.8199 0.9922 Q-17.2183 0.1875 -16.1089 -0.0938 ZM-16.4058 -2.625 Q-16.4058 -1.7656 -15.8511 -1.2188 Q-15.2964 -0.6719 -14.4058 -0.6719 Q-13.5464 -0.6719 -12.9918 -1.2188 Q-12.4371 -1.7656 -12.4371 -2.5469 Q-12.4371 -3.375 -13.0074 -3.9297 Q-13.5777 -4.4844 -14.4214 -4.4844 Q-15.2808 -4.4844 -15.8433 -3.9375 Q-16.4058 -3.3906 -16.4058 -2.625 ZM-16.8902 2.9844 Q-16.8902 3.625 -16.5855 4.2266 Q-16.2808 4.8281 -15.6793 5.1562 Q-15.0777 5.4844 -14.3902 5.4844 Q-13.3277 5.4844 -12.6246 4.7891 Q-11.9214 4.0938 -11.9214 3.0312 Q-11.9214 1.9531 -12.6402 1.25 Q-13.3589 0.5469 -14.4371 0.5469 Q-15.4996 0.5469 -16.1949 1.2422 Q-16.8902 1.9375 -16.8902 2.9844 ZM-9.1424 3.3125 L-7.5643 3.1719 Q-7.3924 4.3281 -6.7596 4.9062 Q-6.1268 5.4844 -5.2362 5.4844 Q-4.158 5.4844 -3.408 4.6719 Q-2.658 3.8594 -2.658 2.5 Q-2.658 1.2344 -3.3768 0.4922 Q-4.0955 -0.25 -5.2518 -0.25 Q-5.9705 -0.25 -6.5565 0.0781 Q-7.1424 0.4062 -7.4705 0.9375 L-8.8768 0.75 L-7.6893 -5.5 L-1.6424 -5.5 L-1.6424 -4.0781 L-6.5018 -4.0781 L-7.158 -0.8125 Q-6.0643 -1.5625 -4.8612 -1.5625 Q-3.2674 -1.5625 -2.1658 -0.4609 Q-1.0643 0.6406 -1.0643 2.375 Q-1.0643 4.0312 -2.033 5.2344 Q-3.2049 6.7031 -5.2362 6.7031 Q-6.8924 6.7031 -7.9393 5.7734 Q-8.9862 4.8438 -9.1424 3.3125 Z"
    /></g
    ><g transform="translate(60.3333,118.6003)" style="font-size:16.6667px; fill:rgb(38,38,38); text-rendering:geometricPrecision; image-rendering:optimizeQuality; color-rendering:optimizeQuality; font-family:'SansSerif'; stroke:rgb(38,38,38); color-interpolation:linearRGB;"
    ><path style="stroke:none;" d="M-23.0625 3.6875 L-21.6406 3.5469 Q-21.4531 4.5625 -20.9375 5.0234 Q-20.4219 5.4844 -19.6094 5.4844 Q-18.9219 5.4844 -18.4062 5.1641 Q-17.8906 4.8438 -17.5547 4.3203 Q-17.2188 3.7969 -17 2.8984 Q-16.7812 2 -16.7812 1.0781 Q-16.7812 0.9688 -16.7812 0.7656 Q-17.2344 1.4844 -18.0078 1.9297 Q-18.7812 2.375 -19.6875 2.375 Q-21.2031 2.375 -22.25 1.2812 Q-23.2969 0.1875 -23.2969 -1.6094 Q-23.2969 -3.4688 -22.2031 -4.5938 Q-21.1094 -5.7188 -19.4688 -5.7188 Q-18.2812 -5.7188 -17.2969 -5.0781 Q-16.3125 -4.4375 -15.8047 -3.2578 Q-15.2969 -2.0781 -15.2969 0.1719 Q-15.2969 2.5 -15.8047 3.8828 Q-16.3125 5.2656 -17.3125 5.9844 Q-18.3125 6.7031 -19.6562 6.7031 Q-21.0781 6.7031 -21.9844 5.9141 Q-22.8906 5.125 -23.0625 3.6875 ZM-16.9531 -1.6875 Q-16.9531 -2.9688 -17.6406 -3.7266 Q-18.3281 -4.4844 -19.2812 -4.4844 Q-20.2812 -4.4844 -21.0234 -3.6719 Q-21.7656 -2.8594 -21.7656 -1.5625 Q-21.7656 -0.3906 -21.0625 0.3281 Q-20.3594 1.0469 -19.3281 1.0469 Q-18.2812 1.0469 -17.6172 0.3281 Q-16.9531 -0.3906 -16.9531 -1.6875 ZM-13.1897 6.5 L-13.1897 4.7969 L-11.4866 4.7969 L-11.4866 6.5 L-13.1897 6.5 ZM-9.1714 3.6875 L-7.7496 3.5469 Q-7.5621 4.5625 -7.0464 5.0234 Q-6.5308 5.4844 -5.7183 5.4844 Q-5.0308 5.4844 -4.5152 5.1641 Q-3.9996 4.8438 -3.6636 4.3203 Q-3.3277 3.7969 -3.1089 2.8984 Q-2.8902 2 -2.8902 1.0781 Q-2.8902 0.9688 -2.8902 0.7656 Q-3.3433 1.4844 -4.1168 1.9297 Q-4.8902 2.375 -5.7964 2.375 Q-7.3121 2.375 -8.3589 1.2812 Q-9.4058 0.1875 -9.4058 -1.6094 Q-9.4058 -3.4688 -8.3121 -4.5938 Q-7.2183 -5.7188 -5.5777 -5.7188 Q-4.3902 -5.7188 -3.4058 -5.0781 Q-2.4214 -4.4375 -1.9136 -3.2578 Q-1.4058 -2.0781 -1.4058 0.1719 Q-1.4058 2.5 -1.9136 3.8828 Q-2.4214 5.2656 -3.4214 5.9844 Q-4.4214 6.7031 -5.7652 6.7031 Q-7.1871 6.7031 -8.0933 5.9141 Q-8.9996 5.125 -9.1714 3.6875 ZM-3.0621 -1.6875 Q-3.0621 -2.9688 -3.7496 -3.7266 Q-4.4371 -4.4844 -5.3902 -4.4844 Q-6.3902 -4.4844 -7.1324 -3.6719 Q-7.8746 -2.8594 -7.8746 -1.5625 Q-7.8746 -0.3906 -7.1714 0.3281 Q-6.4683 1.0469 -5.4371 1.0469 Q-4.3902 1.0469 -3.7261 0.3281 Q-3.0621 -0.3906 -3.0621 -1.6875 Z"
    /></g
    ><g transform="translate(60.3333,77.8002)" style="font-size:16.6667px; fill:rgb(38,38,38); text-rendering:geometricPrecision; image-rendering:optimizeQuality; color-rendering:optimizeQuality; font-family:'SansSerif'; stroke:rgb(38,38,38); color-interpolation:linearRGB;"
    ><path style="stroke:none;" d="M-32.0625 3.6875 L-30.6406 3.5469 Q-30.4531 4.5625 -29.9375 5.0234 Q-29.4219 5.4844 -28.6094 5.4844 Q-27.9219 5.4844 -27.4062 5.1641 Q-26.8906 4.8438 -26.5547 4.3203 Q-26.2188 3.7969 -26 2.8984 Q-25.7812 2 -25.7812 1.0781 Q-25.7812 0.9688 -25.7812 0.7656 Q-26.2344 1.4844 -27.0078 1.9297 Q-27.7812 2.375 -28.6875 2.375 Q-30.2031 2.375 -31.25 1.2812 Q-32.2969 0.1875 -32.2969 -1.6094 Q-32.2969 -3.4688 -31.2031 -4.5938 Q-30.1094 -5.7188 -28.4688 -5.7188 Q-27.2812 -5.7188 -26.2969 -5.0781 Q-25.3125 -4.4375 -24.8047 -3.2578 Q-24.2969 -2.0781 -24.2969 0.1719 Q-24.2969 2.5 -24.8047 3.8828 Q-25.3125 5.2656 -26.3125 5.9844 Q-27.3125 6.7031 -28.6562 6.7031 Q-30.0781 6.7031 -30.9844 5.9141 Q-31.8906 5.125 -32.0625 3.6875 ZM-25.9531 -1.6875 Q-25.9531 -2.9688 -26.6406 -3.7266 Q-27.3281 -4.4844 -28.2812 -4.4844 Q-29.2812 -4.4844 -30.0234 -3.6719 Q-30.7656 -2.8594 -30.7656 -1.5625 Q-30.7656 -0.3906 -30.0625 0.3281 Q-29.3594 1.0469 -28.3281 1.0469 Q-27.2812 1.0469 -26.6172 0.3281 Q-25.9531 -0.3906 -25.9531 -1.6875 ZM-22.1897 6.5 L-22.1897 4.7969 L-20.4866 4.7969 L-20.4866 6.5 L-22.1897 6.5 ZM-18.1714 3.6875 L-16.7496 3.5469 Q-16.5621 4.5625 -16.0464 5.0234 Q-15.5308 5.4844 -14.7183 5.4844 Q-14.0308 5.4844 -13.5152 5.1641 Q-12.9996 4.8438 -12.6636 4.3203 Q-12.3277 3.7969 -12.1089 2.8984 Q-11.8902 2 -11.8902 1.0781 Q-11.8902 0.9688 -11.8902 0.7656 Q-12.3433 1.4844 -13.1168 1.9297 Q-13.8902 2.375 -14.7964 2.375 Q-16.3121 2.375 -17.3589 1.2812 Q-18.4058 0.1875 -18.4058 -1.6094 Q-18.4058 -3.4688 -17.3121 -4.5938 Q-16.2183 -5.7188 -14.5777 -5.7188 Q-13.3902 -5.7188 -12.4058 -5.0781 Q-11.4214 -4.4375 -10.9136 -3.2578 Q-10.4058 -2.0781 -10.4058 0.1719 Q-10.4058 2.5 -10.9136 3.8828 Q-11.4214 5.2656 -12.4214 5.9844 Q-13.4214 6.7031 -14.7652 6.7031 Q-16.1871 6.7031 -17.0933 5.9141 Q-17.9996 5.125 -18.1714 3.6875 ZM-12.0621 -1.6875 Q-12.0621 -2.9688 -12.7496 -3.7266 Q-13.4371 -4.4844 -14.3902 -4.4844 Q-15.3902 -4.4844 -16.1324 -3.6719 Q-16.8746 -2.8594 -16.8746 -1.5625 Q-16.8746 -0.3906 -16.1714 0.3281 Q-15.4683 1.0469 -14.4371 1.0469 Q-13.3902 1.0469 -12.7261 0.3281 Q-12.0621 -0.3906 -12.0621 -1.6875 ZM-9.1424 3.3125 L-7.5643 3.1719 Q-7.3924 4.3281 -6.7596 4.9062 Q-6.1268 5.4844 -5.2362 5.4844 Q-4.158 5.4844 -3.408 4.6719 Q-2.658 3.8594 -2.658 2.5 Q-2.658 1.2344 -3.3768 0.4922 Q-4.0955 -0.25 -5.2518 -0.25 Q-5.9705 -0.25 -6.5565 0.0781 Q-7.1424 0.4062 -7.4705 0.9375 L-8.8768 0.75 L-7.6893 -5.5 L-1.6424 -5.5 L-1.6424 -4.0781 L-6.5018 -4.0781 L-7.158 -0.8125 Q-6.0643 -1.5625 -4.8612 -1.5625 Q-3.2674 -1.5625 -2.1658 -0.4609 Q-1.0643 0.6406 -1.0643 2.375 Q-1.0643 4.0312 -2.033 5.2344 Q-3.2049 6.7031 -5.2362 6.7031 Q-6.8924 6.7031 -7.9393 5.7734 Q-8.9862 4.8438 -9.1424 3.3125 Z"
    /></g
    ><g transform="translate(60.3333,37)" style="font-size:16.6667px; fill:rgb(38,38,38); text-rendering:geometricPrecision; image-rendering:optimizeQuality; color-rendering:optimizeQuality; font-family:'SansSerif'; stroke:rgb(38,38,38); color-interpolation:linearRGB;"
    ><path style="stroke:none;" d="M-12.6719 6.5 L-14.1562 6.5 L-14.1562 -3.0156 Q-14.7031 -2.5 -15.5781 -1.9922 Q-16.4531 -1.4844 -17.1562 -1.2188 L-17.1562 -2.6719 Q-15.8906 -3.25 -14.9531 -4.0938 Q-14.0156 -4.9375 -13.625 -5.7188 L-12.6719 -5.7188 L-12.6719 6.5 ZM-9.0335 0.5 Q-9.0335 -1.6562 -8.5882 -2.9766 Q-8.1428 -4.2969 -7.2678 -5.0078 Q-6.3928 -5.7188 -5.0647 -5.7188 Q-4.0803 -5.7188 -3.346 -5.3281 Q-2.6116 -4.9375 -2.1272 -4.1875 Q-1.6428 -3.4375 -1.3694 -2.375 Q-1.096 -1.3125 -1.096 0.5 Q-1.096 2.6406 -1.5335 3.9531 Q-1.971 5.2656 -2.846 5.9844 Q-3.721 6.7031 -5.0647 6.7031 Q-6.8303 6.7031 -7.8303 5.4531 Q-9.0335 3.9219 -9.0335 0.5 ZM-7.5022 0.5 Q-7.5022 3.5 -6.7991 4.4922 Q-6.096 5.4844 -5.0647 5.4844 Q-4.0335 5.4844 -3.3303 4.4844 Q-2.6272 3.4844 -2.6272 0.5 Q-2.6272 -2.5 -3.3303 -3.4922 Q-4.0335 -4.4844 -5.0803 -4.4844 Q-6.1116 -4.4844 -6.721 -3.6094 Q-7.5022 -2.5 -7.5022 0.5 Z"
    /></g
    ><g transform="translate(22,241) rotate(-90)" style="font-size:18.3333px; fill:rgb(38,38,38); text-rendering:geometricPrecision; image-rendering:optimizeQuality; color-rendering:optimizeQuality; font-family:'mwa_cmmi10'; stroke:rgb(38,38,38); color-interpolation:linearRGB;"
    ><path style="stroke:none;" d="M-43.9749 -6.6001 Q-44.1468 -6.6001 -44.1468 -6.8344 Q-44.1468 -6.8813 -44.1155 -6.9907 Q-44.0843 -7.1001 -44.0374 -7.1704 Q-43.9905 -7.2407 -43.928 -7.2407 Q-42.8187 -7.2407 -42.3968 -7.3501 Q-42.1624 -7.4282 -42.053 -7.8344 L-39.5843 -17.7251 Q-39.5374 -17.8969 -39.5374 -17.9751 Q-39.5374 -18.1626 -39.7718 -18.1938 Q-40.0999 -18.2563 -41.053 -18.2563 Q-41.2249 -18.2563 -41.2249 -18.5063 Q-41.2249 -18.5376 -41.2015 -18.6548 Q-41.178 -18.7719 -41.1234 -18.8344 Q-41.0687 -18.8969 -41.0062 -18.8969 L-31.2405 -18.8969 Q-31.0687 -18.8969 -31.0687 -18.6626 L-31.4905 -14.9282 Q-31.4905 -14.8813 -31.5609 -14.8266 Q-31.6312 -14.7719 -31.678 -14.7719 L-31.8343 -14.7719 Q-32.0218 -14.7719 -32.0218 -15.0063 Q-31.9124 -15.8813 -31.9124 -16.3032 Q-31.9124 -17.0219 -32.1624 -17.4204 Q-32.4124 -17.8188 -32.8187 -17.9985 Q-33.2249 -18.1782 -33.7249 -18.2173 Q-34.2249 -18.2563 -35.0218 -18.2563 L-37.0687 -18.2563 Q-37.5687 -18.2563 -37.7249 -18.1782 Q-37.8812 -18.1001 -38.0218 -17.6469 L-39.0999 -13.3032 L-37.6937 -13.3032 Q-36.7718 -13.3032 -36.3109 -13.4282 Q-35.8499 -13.5532 -35.5765 -13.9594 Q-35.303 -14.3657 -35.0843 -15.2407 Q-35.0687 -15.3032 -35.014 -15.3501 Q-34.9593 -15.3969 -34.8968 -15.3969 L-34.7405 -15.3969 Q-34.5687 -15.3969 -34.5687 -15.1626 L-35.678 -10.7251 Q-35.7093 -10.5688 -35.8499 -10.5688 L-36.0218 -10.5688 Q-36.1937 -10.5688 -36.1937 -10.7876 Q-36.0218 -11.5063 -36.0218 -11.8501 Q-36.0218 -12.3813 -36.4984 -12.5219 Q-36.9749 -12.6626 -37.7562 -12.6626 L-39.2562 -12.6626 L-40.4749 -7.7719 Q-40.553 -7.5532 -40.553 -7.3813 Q-40.553 -7.2407 -39.9437 -7.2407 L-37.7562 -7.2407 Q-36.4593 -7.2407 -35.6546 -7.436 Q-34.8499 -7.6313 -34.3109 -8.0766 Q-33.7718 -8.5219 -33.389 -9.2094 Q-33.0062 -9.8969 -32.4593 -11.2094 Q-32.4124 -11.3188 -32.2874 -11.3188 L-32.1312 -11.3188 Q-32.053 -11.3188 -31.9984 -11.2563 Q-31.9437 -11.1938 -31.9437 -11.1157 Q-31.9437 -11.0844 -31.9749 -11.0532 L-33.8187 -6.7094 Q-33.8655 -6.6001 -33.9593 -6.6001 L-43.9749 -6.6001 Z"
      /><path style="stroke:none;" d="M-29.0351 -3.7095 Q-29.832 -3.7095 -30.2695 -4.3188 Q-30.707 -4.9282 -30.707 -5.7563 Q-30.707 -5.8813 -30.6445 -6.2329 Q-30.582 -6.5845 -30.582 -6.6626 L-29.3164 -11.7095 Q-29.2695 -11.9438 -29.2539 -12.0688 Q-29.2539 -12.272 -30.0976 -12.272 Q-30.2382 -12.272 -30.2382 -12.4438 Q-30.2226 -12.4751 -30.1992 -12.561 Q-30.1757 -12.647 -30.1445 -12.686 Q-30.1132 -12.7251 -30.0507 -12.7251 L-28.3007 -12.8657 Q-28.1289 -12.8657 -28.1289 -12.7095 L-29.0976 -8.8657 Q-28.3632 -9.6001 -27.6132 -9.6001 Q-27.0664 -9.6001 -26.6679 -9.3032 Q-26.2695 -9.0063 -26.0742 -8.5298 Q-25.8789 -8.0532 -25.8789 -7.522 Q-25.8789 -6.897 -26.121 -6.2251 Q-26.3632 -5.5532 -26.7929 -4.9751 Q-27.2226 -4.397 -27.8007 -4.0532 Q-28.3789 -3.7095 -29.0351 -3.7095 ZM-29.0195 -4.0532 Q-28.5664 -4.0532 -28.1835 -4.4204 Q-27.8007 -4.7876 -27.5507 -5.2563 Q-27.2851 -5.772 -27.0664 -6.6626 Q-26.8476 -7.5532 -26.8476 -8.0845 Q-26.8476 -8.5532 -27.0351 -8.9048 Q-27.2226 -9.2563 -27.6445 -9.2563 Q-28.1132 -9.2563 -28.5429 -8.9126 Q-28.9726 -8.5688 -29.3007 -8.0845 L-29.6601 -6.6157 Q-29.8632 -5.8032 -29.8789 -5.3032 Q-29.8789 -4.8188 -29.6679 -4.436 Q-29.457 -4.0532 -29.0195 -4.0532 Z"
      /><path style="stroke:none;" d="M-23.8452 -2.4594 Q-23.8452 -2.5063 -23.8296 -2.5376 L-17.5796 -19.8813 Q-17.5327 -19.9907 -17.4467 -20.0454 Q-17.3608 -20.1001 -17.2514 -20.1001 Q-17.0952 -20.1001 -16.9936 -20.0063 Q-16.8921 -19.9126 -16.8921 -19.7407 L-16.8921 -19.6626 L-23.1421 -2.3188 Q-23.2514 -2.1001 -23.4858 -2.1001 Q-23.6421 -2.1001 -23.7436 -2.2016 Q-23.8452 -2.3032 -23.8452 -2.4594 Z"
      /><path style="stroke:none;" d="M-15.8689 -6.6001 Q-16.0408 -6.6001 -16.0408 -6.8344 Q-16.0408 -6.8813 -16.0095 -6.9907 Q-15.9783 -7.1001 -15.9314 -7.1704 Q-15.8845 -7.2407 -15.822 -7.2407 Q-14.0876 -7.2407 -13.8064 -8.3344 L-11.3689 -18.1782 Q-11.8689 -18.2563 -12.947 -18.2563 Q-13.1189 -18.2563 -13.1189 -18.5063 Q-13.1189 -18.5376 -13.0954 -18.6548 Q-13.072 -18.7719 -13.0173 -18.8344 Q-12.9626 -18.8969 -12.9001 -18.8969 L-9.7908 -18.8969 Q-9.6501 -18.8969 -9.6189 -18.7876 L-5.6189 -9.2563 L-3.6189 -17.2407 Q-3.5876 -17.4282 -3.5876 -17.5063 Q-3.5876 -18.2563 -4.9783 -18.2563 Q-5.1501 -18.2563 -5.1501 -18.5063 Q-5.0876 -18.7251 -5.0564 -18.811 Q-5.0251 -18.8969 -4.8533 -18.8969 L-0.9939 -18.8969 Q-0.822 -18.8969 -0.822 -18.6626 Q-0.8376 -18.6157 -0.8611 -18.5063 Q-0.8845 -18.3969 -0.9314 -18.3266 Q-0.9783 -18.2563 -1.0564 -18.2563 Q-2.7751 -18.2563 -3.0564 -17.1626 L-5.6345 -6.7563 Q-5.697 -6.6001 -5.822 -6.6001 L-6.0408 -6.6001 Q-6.1658 -6.6001 -6.197 -6.7251 L-10.7908 -17.6157 L-10.822 -17.7251 Q-10.8533 -17.7563 -10.8533 -17.7876 L-13.2439 -8.2563 Q-13.2595 -8.2094 -13.2673 -8.1469 Q-13.2751 -8.0844 -13.2908 -7.9907 Q-13.2908 -7.5219 -12.8845 -7.3813 Q-12.4783 -7.2407 -11.8845 -7.2407 Q-11.7126 -7.2407 -11.7126 -6.9907 Q-11.7751 -6.7563 -11.8142 -6.6782 Q-11.8533 -6.6001 -12.0095 -6.6001 L-15.8689 -6.6001 Z"
      /><path style="stroke:none;" d="M1.2677 -3.5688 Q-0.3261 -3.5688 -0.8964 -4.8813 Q-1.4667 -6.1938 -1.4667 -7.9907 Q-1.4667 -9.1313 -1.2636 -10.1235 Q-1.0605 -11.1157 -0.4511 -11.811 Q0.1583 -12.5063 1.2677 -12.5063 Q2.127 -12.5063 2.6739 -12.0923 Q3.2208 -11.6782 3.502 -11.0142 Q3.7833 -10.3501 3.8927 -9.5923 Q4.002 -8.8345 4.002 -7.9907 Q4.002 -6.8813 3.7911 -5.9048 Q3.5802 -4.9282 2.9786 -4.2485 Q2.377 -3.5688 1.2677 -3.5688 ZM1.2677 -3.897 Q1.9864 -3.897 2.3458 -4.6392 Q2.7052 -5.3813 2.7833 -6.2876 Q2.8614 -7.1938 2.8614 -8.2095 Q2.8614 -9.1782 2.7833 -10.0063 Q2.7052 -10.8345 2.3536 -11.5063 Q2.002 -12.1782 1.2677 -12.1782 Q0.5333 -12.1782 0.1739 -11.4985 Q-0.1855 -10.8188 -0.2636 -9.9985 Q-0.3417 -9.1782 -0.3417 -8.2095 Q-0.3417 -7.4751 -0.3105 -6.8345 Q-0.2792 -6.1938 -0.123 -5.5142 Q0.0333 -4.8345 0.3692 -4.3657 Q0.7052 -3.897 1.2677 -3.897 Z"
      /><path style="stroke:none;" d="M13.5871 -2.1001 L13.5871 -20.1001 L16.0559 -20.1001 L16.0559 -19.3813 L14.3059 -19.3813 L14.3059 -2.8188 L16.0559 -2.8188 L16.0559 -2.1001 L13.5871 -2.1001 Z"
      /><path style="stroke:none;" d="M20.9453 -6.3969 Q19.8828 -6.3969 19.0078 -6.9751 Q18.1328 -7.5532 17.6407 -8.4907 Q17.1485 -9.4282 17.1485 -10.4907 Q17.1485 -11.5688 17.6797 -12.5063 Q18.211 -13.4438 19.125 -13.9985 Q20.0391 -14.5532 21.1485 -14.5532 Q21.8047 -14.5532 22.3907 -14.2798 Q22.9766 -14.0063 23.4141 -13.5063 L23.4141 -17.2563 Q23.4141 -17.7407 23.2657 -17.9516 Q23.1172 -18.1626 22.8516 -18.2094 Q22.586 -18.2563 22.0078 -18.2563 L22.0078 -18.8969 L24.6797 -19.0844 L24.6797 -8.2407 Q24.6797 -7.7563 24.8203 -7.5454 Q24.961 -7.3344 25.2344 -7.2876 Q25.5078 -7.2407 26.0703 -7.2407 L26.0703 -6.6001 L23.3516 -6.3969 L23.3516 -7.5376 Q22.8985 -6.9907 22.25 -6.6938 Q21.6016 -6.3969 20.9453 -6.3969 ZM19.1172 -8.1626 Q19.4141 -7.5688 19.9297 -7.2173 Q20.4453 -6.8657 21.0547 -6.8657 Q21.8047 -6.8657 22.4297 -7.3032 Q23.0547 -7.7407 23.3516 -8.4126 L23.3516 -12.7407 Q23.1485 -13.1313 22.8282 -13.4438 Q22.5078 -13.7563 22.1094 -13.9204 Q21.711 -14.0844 21.2578 -14.0844 Q20.3203 -14.0844 19.75 -13.5532 Q19.1797 -13.0219 18.9453 -12.1938 Q18.711 -11.3657 18.711 -10.4751 Q18.711 -9.7407 18.7891 -9.2094 Q18.8672 -8.6782 19.1172 -8.1626 Z"
      /><path style="stroke:none;" d="M27.3493 -6.6001 L27.3493 -7.2407 Q29.2087 -7.2407 29.2087 -7.8032 L29.2087 -17.6938 Q29.2087 -18.2563 27.3493 -18.2563 L27.3493 -18.8969 L33.9743 -18.8969 Q34.8806 -18.8969 35.8181 -18.5376 Q36.7556 -18.1782 37.3649 -17.4829 Q37.9743 -16.7876 37.9743 -15.8344 Q37.9743 -14.7407 37.0759 -13.9985 Q36.1774 -13.2563 34.9743 -13.0219 Q35.7556 -13.0219 36.5759 -12.5923 Q37.3962 -12.1626 37.9274 -11.4438 Q38.4587 -10.7251 38.4587 -9.9126 Q38.4587 -8.9282 37.8727 -8.1704 Q37.2868 -7.4126 36.3571 -7.0063 Q35.4274 -6.6001 34.4899 -6.6001 L27.3493 -6.6001 ZM30.7712 -7.8032 Q30.7712 -7.4126 30.9899 -7.3266 Q31.2087 -7.2407 31.6931 -7.2407 L33.9743 -7.2407 Q34.6774 -7.2407 35.279 -7.6079 Q35.8806 -7.9751 36.2321 -8.5923 Q36.5837 -9.2094 36.5837 -9.9126 Q36.5837 -10.6001 36.2946 -11.2563 Q36.0056 -11.9126 35.4665 -12.3344 Q34.9274 -12.7563 34.2243 -12.7563 L30.7712 -12.7563 L30.7712 -7.8032 ZM30.7712 -13.2251 L33.4743 -13.2251 Q34.0212 -13.2251 34.4977 -13.4204 Q34.9743 -13.6157 35.3571 -13.9907 Q35.7399 -14.3657 35.9431 -14.8344 Q36.1462 -15.3032 36.1462 -15.8344 Q36.1462 -16.3032 35.9977 -16.7329 Q35.8493 -17.1626 35.5524 -17.5141 Q35.2556 -17.8657 34.8493 -18.061 Q34.4431 -18.2563 33.9743 -18.2563 L31.6931 -18.2563 Q31.3649 -18.2563 31.1852 -18.2329 Q31.0056 -18.2094 30.8884 -18.0844 Q30.7712 -17.9594 30.7712 -17.6938 L30.7712 -13.2251 Z"
      /><path style="stroke:none;" d="M40.1167 -2.1001 L40.1167 -2.8188 L41.8667 -2.8188 L41.8667 -19.3813 L40.1167 -19.3813 L40.1167 -20.1001 L42.5855 -20.1001 L42.5855 -2.1001 L40.1167 -2.1001 Z"
    /></g
    ><g style="stroke-linecap:butt; fill:red; text-rendering:geometricPrecision; image-rendering:optimizeQuality; color-rendering:optimizeQuality; stroke-linejoin:round; stroke:red; color-interpolation:linearRGB; stroke-width:2.5;"
    ><path d="M67 37 L122.1429 37 L177.2857 37 L232.4286 37 L287.5714 445 L342.7143 445 L397.8571 445 L453 445" style="fill:none; fill-rule:evenodd;"
      /><circle transform="translate(67,37)" style="fill:none; stroke-linejoin:miter;" r="5" cx="0" cy="0"
      /><circle transform="translate(122.1429,37)" style="fill:none; stroke-linejoin:miter;" r="5" cx="0" cy="0"
      /><circle transform="translate(177.2857,37)" style="fill:none; stroke-linejoin:miter;" r="5" cx="0" cy="0"
      /><circle transform="translate(232.4286,37)" style="fill:none; stroke-linejoin:miter;" r="5" cx="0" cy="0"
      /><circle transform="translate(287.5714,445)" style="fill:none; stroke-linejoin:miter;" r="5" cx="0" cy="0"
      /><circle transform="translate(342.7143,445)" style="fill:none; stroke-linejoin:miter;" r="5" cx="0" cy="0"
      /><circle transform="translate(397.8571,445)" style="fill:none; stroke-linejoin:miter;" r="5" cx="0" cy="0"
      /><circle transform="translate(453,445)" style="fill:none; stroke-linejoin:miter;" r="5" cx="0" cy="0"
    /></g
    ><g style="fill:white; text-rendering:optimizeSpeed; color-rendering:optimizeSpeed; image-rendering:optimizeSpeed; shape-rendering:crispEdges; stroke:white; color-interpolation:sRGB;"
    ><path style="stroke:none;" d="M440 73 L440 50 L87 50 L87 73 Z"
    /></g
    ><g transform="translate(145.7561,61.5)" style="font-size:15px; text-rendering:geometricPrecision; color-rendering:optimizeQuality; image-rendering:optimizeQuality; font-family:'mwa_cmmi10'; color-interpolation:linearRGB;"
    ><path style="stroke:none;" d="M0.7031 3.5999 Q0.5625 3.5999 0.5625 3.3968 Q0.5625 3.3656 0.5859 3.2718 Q0.6094 3.1781 0.6484 3.1234 Q0.6875 3.0687 0.75 3.0687 Q1.6562 3.0687 2.0156 2.9749 Q2.2188 2.8968 2.3125 2.5687 L4.3594 -5.6657 Q4.3906 -5.8219 4.3906 -5.8844 Q4.3906 -6.0407 4.2188 -6.0563 Q3.9375 -6.1188 3.1406 -6.1188 Q2.9844 -6.1188 2.9844 -6.3219 Q3 -6.3532 3.0234 -6.4469 Q3.0469 -6.5407 3.0859 -6.5954 Q3.125 -6.6501 3.1719 -6.6501 L11.1094 -6.6501 Q11.25 -6.6501 11.25 -6.4469 L10.8906 -3.3376 Q10.8906 -3.3063 10.8359 -3.2594 Q10.7812 -3.2126 10.7344 -3.2126 L10.6094 -3.2126 Q10.4531 -3.2126 10.4531 -3.4001 Q10.5469 -4.0876 10.5469 -4.5094 Q10.5469 -5.2594 10.2266 -5.611 Q9.9062 -5.9626 9.4141 -6.0407 Q8.9219 -6.1188 8.0625 -6.1188 L6.4531 -6.1188 Q6.0469 -6.1188 5.9141 -6.0485 Q5.7812 -5.9782 5.6719 -5.6032 L4.7031 -1.7907 L5.8438 -1.7907 Q6.3906 -1.7907 6.7344 -1.8454 Q7.0781 -1.9001 7.3047 -2.0719 Q7.5312 -2.2438 7.6875 -2.5563 Q7.8438 -2.8688 7.9688 -3.4001 Q8 -3.5407 8.1094 -3.5407 L8.25 -3.5407 Q8.4062 -3.5407 8.4062 -3.3376 L7.4844 0.3656 Q7.4219 0.4906 7.3281 0.4906 L7.2031 0.4906 Q7.0469 0.4906 7.0469 0.3031 Q7.0938 0.1468 7.1172 0.0453 Q7.1406 -0.0563 7.1719 -0.2516 Q7.2031 -0.4469 7.2031 -0.6032 Q7.2031 -1.0251 6.8203 -1.1422 Q6.4375 -1.2594 5.8281 -1.2594 L4.5938 -1.2594 L3.625 2.6312 Q3.5781 2.7718 3.5781 2.7718 Q3.5781 2.9437 3.6875 2.9749 Q4.0781 3.0687 5.2188 3.0687 Q5.375 3.0687 5.375 3.2718 Q5.3125 3.4749 5.2891 3.5374 Q5.2656 3.5999 5.1094 3.5999 L0.7031 3.5999 Z"
    /></g
    ><g transform="translate(145.7561,61.5)" style="font-size:15px; text-rendering:geometricPrecision; color-rendering:optimizeQuality; image-rendering:optimizeQuality; font-family:'mwa_cmmi10'; color-interpolation:linearRGB;"
    ><path style="stroke:none;" d="M12.6511 3.9281 Q12.6042 3.9281 12.5651 3.8812 Q12.5261 3.8343 12.5261 3.7874 L13.3854 0.2874 Q13.4167 0.1937 13.5104 0.1937 L13.6979 0.1937 Q13.7448 0.1937 13.7839 0.2406 Q13.8229 0.2874 13.8229 0.3499 Q13.6979 0.8656 13.6979 1.2562 Q13.6979 2.3499 14.4401 2.8734 Q15.1823 3.3968 16.3229 3.3968 Q16.8073 3.3968 17.2839 3.1546 Q17.7604 2.9124 18.1198 2.5296 Q18.4792 2.1468 18.6901 1.6624 Q18.9011 1.1781 18.9011 0.6937 Q18.9011 0.1624 18.6198 -0.2516 Q18.3386 -0.6657 17.8542 -0.7751 L16.0261 -1.2594 Q15.2761 -1.4626 14.8386 -2.0563 Q14.4011 -2.6501 14.4011 -3.4001 Q14.4011 -4.3063 14.9401 -5.1422 Q15.4792 -5.9782 16.3386 -6.4782 Q17.1979 -6.9782 18.0886 -6.9782 Q18.7761 -6.9782 19.3542 -6.7282 Q19.9323 -6.4782 20.2292 -5.9157 L21.0886 -6.9313 Q21.1823 -6.9782 21.1979 -6.9782 L21.2917 -6.9782 Q21.3386 -6.9782 21.3776 -6.9235 Q21.4167 -6.8688 21.4167 -6.8219 L20.5417 -3.3376 Q20.5261 -3.2438 20.4323 -3.2438 L20.2448 -3.2438 Q20.1198 -3.2438 20.1198 -3.4001 Q20.1823 -3.8844 20.1823 -4.2282 Q20.1823 -4.9313 19.9479 -5.4469 Q19.7136 -5.9626 19.237 -6.2282 Q18.7604 -6.4938 18.0417 -6.4938 Q17.4479 -6.4938 16.8542 -6.1501 Q16.2604 -5.8063 15.8932 -5.236 Q15.5261 -4.6657 15.5261 -4.0407 Q15.5261 -3.5563 15.8073 -3.1891 Q16.0886 -2.8219 16.5573 -2.6813 L18.3854 -2.2126 Q18.8854 -2.0719 19.2526 -1.7438 Q19.6198 -1.4157 19.8151 -0.9547 Q20.0104 -0.4938 20.0104 0.0531 Q20.0104 0.7562 19.7057 1.4515 Q19.4011 2.1468 18.862 2.7171 Q18.3229 3.2874 17.6432 3.6078 Q16.9636 3.9281 16.2604 3.9281 Q14.4636 3.9281 13.6979 2.8812 L12.8542 3.8812 Q12.7761 3.9281 12.7448 3.9281 L12.6511 3.9281 Z"
      /><path style="stroke:none;" d="M22.4948 3.5999 Q22.3542 3.5999 22.3542 3.3968 Q22.3542 3.3656 22.3776 3.2718 Q22.401 3.1781 22.4401 3.1234 Q22.4792 3.0687 22.5417 3.0687 Q23.4479 3.0687 23.8073 2.9749 Q24.0104 2.8968 24.1042 2.5687 L26.151 -5.6657 Q26.1823 -5.8219 26.1823 -5.8844 Q26.1823 -6.0407 26.0104 -6.0563 Q25.7292 -6.1188 24.9323 -6.1188 Q24.776 -6.1188 24.776 -6.3219 Q24.7917 -6.3532 24.8151 -6.4469 Q24.8385 -6.5407 24.8776 -6.5954 Q24.9167 -6.6501 24.9635 -6.6501 L33.1042 -6.6501 Q33.2604 -6.6501 33.2604 -6.4469 L32.901 -3.3376 Q32.901 -3.3063 32.8463 -3.2594 Q32.7917 -3.2126 32.7448 -3.2126 L32.6042 -3.2126 Q32.4635 -3.2126 32.4635 -3.4001 Q32.5417 -4.1344 32.5417 -4.4938 Q32.5417 -5.0876 32.3385 -5.4235 Q32.1354 -5.7594 31.7917 -5.9001 Q31.4479 -6.0407 31.0338 -6.0797 Q30.6198 -6.1188 29.9479 -6.1188 L28.2448 -6.1188 Q27.8385 -6.1188 27.7057 -6.0485 Q27.5729 -5.9782 27.4635 -5.6032 L26.5573 -1.9782 L27.7292 -1.9782 Q28.4948 -1.9782 28.8854 -2.0876 Q29.276 -2.1969 29.5026 -2.5329 Q29.7292 -2.8688 29.901 -3.6032 Q29.9167 -3.6501 29.9557 -3.6891 Q29.9948 -3.7282 30.0573 -3.7282 L30.1979 -3.7282 Q30.3385 -3.7282 30.3385 -3.5407 L29.4167 0.1624 Q29.3854 0.3031 29.2604 0.3031 L29.1198 0.3031 Q28.9792 0.3031 28.9792 0.0999 Q29.1198 -0.4938 29.1198 -0.7751 Q29.1198 -1.2126 28.7292 -1.3297 Q28.3385 -1.4469 27.6667 -1.4469 L26.4323 -1.4469 L25.4167 2.6312 Q25.3385 2.8031 25.3385 2.9593 Q25.3385 3.0687 25.8542 3.0687 L27.6667 3.0687 Q28.7604 3.0687 29.4323 2.9046 Q30.1042 2.7406 30.5495 2.3656 Q30.9948 1.9906 31.3151 1.4203 Q31.6354 0.8499 32.1042 -0.2438 Q32.1198 -0.3376 32.2292 -0.3376 L32.3698 -0.3376 Q32.4323 -0.3376 32.4713 -0.2829 Q32.5104 -0.2282 32.5104 -0.1657 Q32.5104 -0.1344 32.4948 -0.1032 L30.9479 3.5062 Q30.9323 3.5999 30.8385 3.5999 L22.4948 3.5999 Z"
      /><path style="stroke:none;" d="M39.1354 6.5062 Q39.0885 6.5062 39.0494 6.4593 Q39.0104 6.4124 39.0104 6.3656 L41.3229 -2.9157 Q41.526 -3.6657 41.901 -4.3688 Q42.276 -5.0719 42.8541 -5.6735 Q43.4322 -6.2751 44.1197 -6.6266 Q44.8072 -6.9782 45.5885 -6.9782 Q46.1354 -6.9782 46.5885 -6.7282 Q47.0416 -6.4782 47.2994 -6.0407 Q47.5572 -5.6032 47.5572 -5.0407 Q47.5572 -4.5094 47.3541 -4.0251 Q47.151 -3.5407 46.7838 -3.1188 Q46.4166 -2.6969 45.9947 -2.4313 Q46.2447 -2.2751 46.4322 -2.0329 Q46.6197 -1.7907 46.7369 -1.5329 Q46.8541 -1.2751 46.9244 -0.9547 Q46.9947 -0.6344 46.9947 -0.3688 Q46.9947 0.4124 46.6666 1.1546 Q46.3385 1.8968 45.7682 2.5062 Q45.1979 3.1156 44.4635 3.4749 Q43.7291 3.8343 42.9635 3.8343 Q42.1197 3.8343 41.4479 3.3656 Q40.776 2.8968 40.5104 2.1156 L39.4322 6.4124 Q39.4322 6.5062 39.3229 6.5062 L39.1354 6.5062 ZM42.9947 3.4124 Q43.6666 3.4124 44.2135 2.9749 Q44.7604 2.5374 45.1119 1.8656 Q45.4635 1.1937 45.651 0.4437 Q45.8385 -0.3063 45.8385 -0.9313 Q45.8385 -1.6813 45.401 -2.1344 Q44.8854 -1.9313 44.401 -1.9313 Q43.2135 -1.9313 43.2135 -2.3376 Q43.2135 -2.8688 44.5729 -2.8688 Q45.0572 -2.8688 45.4479 -2.7126 Q45.776 -2.9626 46.0416 -3.4469 Q46.3072 -3.9313 46.4401 -4.4547 Q46.5729 -4.9782 46.5729 -5.4469 Q46.5729 -5.9313 46.3151 -6.2594 Q46.0572 -6.5876 45.5572 -6.5876 Q44.6354 -6.5876 43.8541 -6.0251 Q43.0729 -5.4626 42.526 -4.6032 Q41.9791 -3.7438 41.7447 -2.8219 L40.9166 0.4906 Q40.8385 0.8343 40.8229 1.2562 Q40.8229 2.1937 41.4322 2.8031 Q42.0416 3.4124 42.9947 3.4124 ZM43.6666 -2.3844 Q43.8854 -2.3219 44.4166 -2.3219 Q44.6666 -2.3219 44.9322 -2.4157 Q44.9166 -2.4313 44.8697 -2.4313 Q44.7135 -2.4782 44.526 -2.4782 Q43.8385 -2.4782 43.6666 -2.3844 Z"
      /><path style="stroke:none;" d="M53.2967 1.5999 Q53.1717 1.5999 53.0936 1.5062 Q53.0155 1.4124 53.0155 1.3031 Q53.0155 1.1781 53.0936 1.0921 Q53.1717 1.0062 53.2967 1.0062 L62.7186 1.0062 Q62.828 1.0062 62.9061 1.0921 Q62.9842 1.1781 62.9842 1.3031 Q62.9842 1.4124 62.9061 1.5062 Q62.828 1.5999 62.7186 1.5999 L53.2967 1.5999 ZM53.2967 -1.3063 Q53.1717 -1.3063 53.0936 -1.3922 Q53.0155 -1.4782 53.0155 -1.6032 Q53.0155 -1.7126 53.0936 -1.8141 Q53.1717 -1.9157 53.2967 -1.9157 L62.7186 -1.9157 Q62.828 -1.9157 62.9061 -1.8141 Q62.9842 -1.7126 62.9842 -1.6032 Q62.9842 -1.4782 62.9061 -1.3922 Q62.828 -1.3063 62.7186 -1.3063 L53.2967 -1.3063 Z"
      /><path style="stroke:none;" d="M69.3956 3.5999 L69.3956 3.0687 Q71.2706 3.0687 71.2706 2.5999 L71.2706 -5.2751 Q70.4893 -4.9001 69.3018 -4.9001 L69.3018 -5.4313 Q71.1456 -5.4313 72.0831 -6.3844 L72.3018 -6.3844 Q72.3487 -6.3844 72.3956 -6.3454 Q72.4425 -6.3063 72.4425 -6.2594 L72.4425 2.5999 Q72.4425 3.0687 74.3175 3.0687 L74.3175 3.5999 L69.3956 3.5999 Z"
      /><path style="stroke:none;" d="M76.7706 2.7718 Q76.7706 2.4281 77.0206 2.1937 Q77.2706 1.9593 77.5987 1.9593 Q77.8019 1.9593 77.9972 2.0687 Q78.1925 2.1781 78.3019 2.3734 Q78.4112 2.5687 78.4112 2.7718 Q78.4112 3.0999 78.1691 3.3499 Q77.9269 3.5999 77.5987 3.5999 Q77.2706 3.5999 77.0206 3.3499 Q76.7706 3.0999 76.7706 2.7718 Z"
      /><path style="stroke:none;" d="M80.4217 3.5999 L80.4217 3.1937 Q80.4217 3.1624 80.4529 3.1156 L82.7811 0.5374 Q83.3123 -0.0407 83.6404 -0.4235 Q83.9686 -0.8063 84.2889 -1.3141 Q84.6092 -1.8219 84.7967 -2.3454 Q84.9842 -2.8688 84.9842 -3.4469 Q84.9842 -4.0719 84.7576 -4.6344 Q84.5311 -5.1969 84.0779 -5.5329 Q83.6248 -5.8688 82.9842 -5.8688 Q82.3436 -5.8688 81.8201 -5.4704 Q81.2967 -5.0719 81.0779 -4.4626 Q81.1404 -4.4782 81.2498 -4.4782 Q81.5779 -4.4782 81.8201 -4.2516 Q82.0623 -4.0251 82.0623 -3.6657 Q82.0623 -3.3219 81.8201 -3.0797 Q81.5779 -2.8376 81.2498 -2.8376 Q80.8904 -2.8376 80.6561 -3.0797 Q80.4217 -3.3219 80.4217 -3.6657 Q80.4217 -4.2282 80.6326 -4.7204 Q80.8436 -5.2126 81.242 -5.5954 Q81.6404 -5.9782 82.1404 -6.1813 Q82.6404 -6.3844 83.2029 -6.3844 Q84.0623 -6.3844 84.8045 -6.0251 Q85.5467 -5.6657 85.9764 -5.0016 Q86.4061 -4.3376 86.4061 -3.4469 Q86.4061 -2.8063 86.1248 -2.2204 Q85.8436 -1.6344 85.3982 -1.1501 Q84.9529 -0.6657 84.2498 -0.0563 Q83.5467 0.5531 83.3279 0.7562 L81.6404 2.3812 L83.0779 2.3812 Q84.1404 2.3812 84.8514 2.3656 Q85.5623 2.3499 85.6092 2.3031 Q85.7811 2.1156 85.9686 0.9281 L86.4061 0.9281 L85.9842 3.5999 L80.4217 3.5999 Z"
      /><path style="stroke:none;" d="M87.9217 3.5999 L87.9217 3.1937 Q87.9217 3.1624 87.9529 3.1156 L90.2811 0.5374 Q90.8123 -0.0407 91.1404 -0.4235 Q91.4686 -0.8063 91.7889 -1.3141 Q92.1092 -1.8219 92.2967 -2.3454 Q92.4842 -2.8688 92.4842 -3.4469 Q92.4842 -4.0719 92.2576 -4.6344 Q92.0311 -5.1969 91.5779 -5.5329 Q91.1248 -5.8688 90.4842 -5.8688 Q89.8436 -5.8688 89.3201 -5.4704 Q88.7967 -5.0719 88.5779 -4.4626 Q88.6404 -4.4782 88.7498 -4.4782 Q89.0779 -4.4782 89.3201 -4.2516 Q89.5623 -4.0251 89.5623 -3.6657 Q89.5623 -3.3219 89.3201 -3.0797 Q89.0779 -2.8376 88.7498 -2.8376 Q88.3904 -2.8376 88.1561 -3.0797 Q87.9217 -3.3219 87.9217 -3.6657 Q87.9217 -4.2282 88.1326 -4.7204 Q88.3436 -5.2126 88.742 -5.5954 Q89.1404 -5.9782 89.6404 -6.1813 Q90.1404 -6.3844 90.7029 -6.3844 Q91.5623 -6.3844 92.3045 -6.0251 Q93.0467 -5.6657 93.4764 -5.0016 Q93.9061 -4.3376 93.9061 -3.4469 Q93.9061 -2.8063 93.6248 -2.2204 Q93.3436 -1.6344 92.8983 -1.1501 Q92.4529 -0.6657 91.7498 -0.0563 Q91.0467 0.5531 90.8279 0.7562 L89.1404 2.3812 L90.5779 2.3812 Q91.6404 2.3812 92.3514 2.3656 Q93.0623 2.3499 93.1092 2.3031 Q93.2811 2.1156 93.4686 0.9281 L93.9061 0.9281 L93.4842 3.5999 L87.9217 3.5999 Z"
      /><path style="stroke:none;" d="M98.4217 3.9281 Q96.578 3.9281 95.9217 2.4124 Q95.2655 0.8968 95.2655 -1.1813 Q95.2655 -2.4938 95.4998 -3.6422 Q95.7342 -4.7907 96.4373 -5.5876 Q97.1405 -6.3844 98.4217 -6.3844 Q99.4061 -6.3844 100.0389 -5.9079 Q100.6717 -5.4313 100.9998 -4.6657 Q101.328 -3.9001 101.453 -3.0251 Q101.578 -2.1501 101.578 -1.1813 Q101.578 0.0999 101.3358 1.2249 Q101.0936 2.3499 100.3983 3.139 Q99.703 3.9281 98.4217 3.9281 ZM98.4217 3.5374 Q99.2498 3.5374 99.6639 2.6859 Q100.078 1.8343 100.1717 0.7874 Q100.2655 -0.2594 100.2655 -1.4313 Q100.2655 -2.5563 100.1717 -3.5094 Q100.078 -4.4626 99.6717 -5.236 Q99.2655 -6.0094 98.4217 -6.0094 Q97.578 -6.0094 97.1639 -5.2282 Q96.7498 -4.4469 96.6561 -3.5016 Q96.5623 -2.5563 96.5623 -1.4313 Q96.5623 -0.5876 96.6014 0.1546 Q96.6405 0.8968 96.8202 1.6781 Q96.9998 2.4593 97.3905 2.9984 Q97.7811 3.5374 98.4217 3.5374 Z"
      /><path style="stroke:none;" d="M104.7811 3.2093 Q104.7811 2.3812 104.9296 1.5843 Q105.078 0.7874 105.3592 0.0062 Q105.6405 -0.7751 106.0389 -1.5251 Q106.4374 -2.2751 106.9061 -2.9469 L108.2811 -4.8376 L106.5624 -4.8376 Q103.9061 -4.8376 103.8124 -4.7751 Q103.6249 -4.5251 103.453 -3.3844 L103.0155 -3.3844 L103.4999 -6.5407 L103.9374 -6.5407 L103.9374 -6.4938 Q103.9374 -6.2282 104.8592 -6.1422 Q105.7811 -6.0563 106.6561 -6.0563 L109.4374 -6.0563 L109.4374 -5.6657 Q109.4374 -5.6657 109.4374 -5.6579 Q109.4374 -5.6501 109.4374 -5.6344 L107.3592 -2.7282 Q106.6092 -1.6032 106.4139 -0.2282 Q106.2186 1.1468 106.2186 3.2093 Q106.2186 3.5062 106.0077 3.7171 Q105.7967 3.9281 105.4999 3.9281 Q105.203 3.9281 104.9921 3.7171 Q104.7811 3.5062 104.7811 3.2093 Z"
      /><path style="stroke:none;" d="M113.4218 3.9281 Q111.578 3.9281 110.9218 2.4124 Q110.2655 0.8968 110.2655 -1.1813 Q110.2655 -2.4938 110.4999 -3.6422 Q110.7343 -4.7907 111.4374 -5.5876 Q112.1405 -6.3844 113.4218 -6.3844 Q114.4061 -6.3844 115.039 -5.9079 Q115.6718 -5.4313 115.9999 -4.6657 Q116.328 -3.9001 116.453 -3.0251 Q116.578 -2.1501 116.578 -1.1813 Q116.578 0.0999 116.3358 1.2249 Q116.0936 2.3499 115.3983 3.139 Q114.703 3.9281 113.4218 3.9281 ZM113.4218 3.5374 Q114.2499 3.5374 114.664 2.6859 Q115.078 1.8343 115.1718 0.7874 Q115.2655 -0.2594 115.2655 -1.4313 Q115.2655 -2.5563 115.1718 -3.5094 Q115.078 -4.4626 114.6718 -5.236 Q114.2655 -6.0094 113.4218 -6.0094 Q112.578 -6.0094 112.164 -5.2282 Q111.7499 -4.4469 111.6561 -3.5016 Q111.5624 -2.5563 111.5624 -1.4313 Q111.5624 -0.5876 111.6015 0.1546 Q111.6405 0.8968 111.8202 1.6781 Q111.9999 2.4593 112.3905 2.9984 Q112.7811 3.5374 113.4218 3.5374 Z"
      /><path style="stroke:none;" d="M118.5937 2.4437 Q118.953 2.9593 119.5468 3.2093 Q120.1405 3.4593 120.8124 3.4593 Q121.6874 3.4593 122.0546 2.7093 Q122.4218 1.9593 122.4218 1.0218 Q122.4218 0.5999 122.3437 0.1703 Q122.2655 -0.2594 122.0859 -0.6188 Q121.9062 -0.9782 121.5859 -1.2047 Q121.2655 -1.4313 120.8124 -1.4313 L119.8124 -1.4313 Q119.6718 -1.4313 119.6718 -1.5563 L119.6718 -1.6969 Q119.6718 -1.8063 119.8124 -1.8063 L120.6405 -1.8844 Q121.1562 -1.8844 121.5077 -2.2751 Q121.8593 -2.6657 122.0234 -3.236 Q122.1874 -3.8063 122.1874 -4.3219 Q122.1874 -5.0407 121.8515 -5.5016 Q121.5155 -5.9626 120.8124 -5.9626 Q120.2499 -5.9626 119.7265 -5.7438 Q119.203 -5.5251 118.9062 -5.0876 Q118.9374 -5.0876 118.953 -5.0954 Q118.9687 -5.1032 118.9999 -5.1032 Q119.3437 -5.1032 119.5702 -4.8688 Q119.7968 -4.6344 119.7968 -4.3063 Q119.7968 -3.9782 119.5702 -3.7438 Q119.3437 -3.5094 118.9999 -3.5094 Q118.6718 -3.5094 118.4374 -3.7438 Q118.203 -3.9782 118.203 -4.3063 Q118.203 -4.9469 118.5937 -5.4235 Q118.9843 -5.9001 119.5937 -6.1422 Q120.203 -6.3844 120.8124 -6.3844 Q121.2812 -6.3844 121.7812 -6.2516 Q122.2812 -6.1188 122.6952 -5.8688 Q123.1093 -5.6188 123.3671 -5.2204 Q123.6249 -4.8219 123.6249 -4.3219 Q123.6249 -3.6813 123.3437 -3.1501 Q123.0624 -2.6188 122.5702 -2.2282 Q122.078 -1.8376 121.4999 -1.6501 Q122.1405 -1.5251 122.7265 -1.1579 Q123.3124 -0.7907 123.6718 -0.2204 Q124.0312 0.3499 124.0312 1.0062 Q124.0312 1.8343 123.578 2.5062 Q123.1249 3.1781 122.3827 3.5531 Q121.6405 3.9281 120.8124 3.9281 Q120.1093 3.9281 119.4062 3.6624 Q118.703 3.3968 118.2499 2.8578 Q117.7968 2.3187 117.7968 1.5843 Q117.7968 1.2093 118.0468 0.9593 Q118.2968 0.7093 118.6718 0.7093 Q118.9218 0.7093 119.1171 0.8187 Q119.3124 0.9281 119.4296 1.139 Q119.5468 1.3499 119.5468 1.5843 Q119.5468 1.9437 119.289 2.1937 Q119.0312 2.4437 118.6718 2.4437 L118.5937 2.4437 Z"
      /><path style="stroke:none;" d="M127.6874 3.7718 Q126.9687 3.7718 126.4296 3.3968 Q125.8906 3.0218 125.6093 2.389 Q125.3281 1.7562 125.3281 1.0531 Q125.3281 -0.0251 125.8671 -0.9626 Q126.4062 -1.9001 127.3281 -2.4626 Q128.2499 -3.0251 129.3124 -3.0251 Q129.9531 -3.0251 130.4296 -2.6969 Q130.9062 -2.3688 130.9062 -1.7438 Q130.9062 -0.8688 130.2187 -0.4547 Q129.5312 -0.0407 128.6718 0.0609 Q127.8124 0.1624 126.7656 0.1624 L126.7187 0.1624 Q126.4687 1.0531 126.4687 1.6937 Q126.4687 2.3656 126.7812 2.8656 Q127.0937 3.3656 127.7187 3.3656 Q128.6093 3.3656 129.4374 2.9593 Q130.2656 2.5531 130.7812 1.8343 Q130.8281 1.7874 130.8906 1.7874 Q130.9687 1.7874 131.0468 1.8734 Q131.1249 1.9593 131.1249 2.0218 Q131.1249 2.0843 131.0937 2.1156 Q130.5468 2.8812 129.6171 3.3265 Q128.6874 3.7718 127.6874 3.7718 ZM126.7968 -0.2282 Q127.6718 -0.2282 128.414 -0.3063 Q129.1562 -0.3844 129.7578 -0.7126 Q130.3593 -1.0407 130.3593 -1.7282 Q130.3593 -2.0094 130.2031 -2.2126 Q130.0468 -2.4157 129.8046 -2.5251 Q129.5624 -2.6344 129.2968 -2.6344 Q128.6562 -2.6344 128.1484 -2.2907 Q127.6406 -1.9469 127.3124 -1.4001 Q126.9843 -0.8532 126.7968 -0.2282 Z"
      /><path style="stroke:none;" d="M136.5207 0.1468 Q136.3957 0.1468 136.3176 0.0531 Q136.2395 -0.0407 136.2395 -0.1501 Q136.2395 -0.2594 136.3176 -0.3532 Q136.3957 -0.4469 136.5207 -0.4469 L145.1301 -0.4469 Q145.2395 -0.4469 145.3176 -0.3532 Q145.3957 -0.2594 145.3957 -0.1501 Q145.3957 -0.0407 145.3176 0.0531 Q145.2395 0.1468 145.1301 0.1468 L136.5207 0.1468 Z"
      /><path style="stroke:none;" d="M153.7394 3.9281 Q151.8957 3.9281 151.2394 2.4124 Q150.5832 0.8968 150.5832 -1.1813 Q150.5832 -2.4938 150.8175 -3.6422 Q151.0519 -4.7907 151.755 -5.5876 Q152.4582 -6.3844 153.7394 -6.3844 Q154.7238 -6.3844 155.3566 -5.9079 Q155.9894 -5.4313 156.3175 -4.6657 Q156.6457 -3.9001 156.7707 -3.0251 Q156.8957 -2.1501 156.8957 -1.1813 Q156.8957 0.0999 156.6535 1.2249 Q156.4113 2.3499 155.716 3.139 Q155.0207 3.9281 153.7394 3.9281 ZM153.7394 3.5374 Q154.5675 3.5374 154.9816 2.6859 Q155.3957 1.8343 155.4894 0.7874 Q155.5832 -0.2594 155.5832 -1.4313 Q155.5832 -2.5563 155.4894 -3.5094 Q155.3957 -4.4626 154.9894 -5.236 Q154.5832 -6.0094 153.7394 -6.0094 Q152.8957 -6.0094 152.4816 -5.2282 Q152.0675 -4.4469 151.9738 -3.5016 Q151.88 -2.5563 151.88 -1.4313 Q151.88 -0.5876 151.9191 0.1546 Q151.9582 0.8968 152.1378 1.6781 Q152.3175 2.4593 152.7082 2.9984 Q153.0988 3.5374 153.7394 3.5374 Z"
      /><path style="stroke:none;" d="M157.9113 1.1312 L157.9113 0.5999 L162.5363 -6.3219 Q162.5988 -6.3844 162.6926 -6.3844 L162.9113 -6.3844 Q163.0832 -6.3844 163.0832 -6.2282 L163.0832 0.5999 L164.5519 0.5999 L164.5519 1.1312 L163.0832 1.1312 L163.0832 2.5999 Q163.0832 2.8968 163.5207 2.9828 Q163.9582 3.0687 164.5363 3.0687 L164.5363 3.5999 L160.4113 3.5999 L160.4113 3.0687 Q160.9894 3.0687 161.4269 2.9828 Q161.8644 2.8968 161.8644 2.5999 L161.8644 1.1312 L157.9113 1.1312 ZM158.4113 0.5999 L161.9582 0.5999 L161.9582 -4.7126 L158.4113 0.5999 Z"
      /><path style="stroke:none;" d="M166.4738 6.3031 Q166.4738 6.2406 166.5363 6.1781 Q167.0832 5.6624 167.3801 4.9828 Q167.677 4.3031 167.677 3.5374 L167.677 3.3656 Q167.4426 3.5999 167.0832 3.5999 Q166.7395 3.5999 166.4973 3.3578 Q166.2551 3.1156 166.2551 2.7718 Q166.2551 2.4281 166.4973 2.1937 Q166.7395 1.9593 167.0832 1.9593 Q167.6145 1.9593 167.841 2.4515 Q168.0676 2.9437 168.0676 3.5374 Q168.0676 4.3812 167.7316 5.1312 Q167.3957 5.8812 166.7863 6.4749 Q166.7395 6.5062 166.6926 6.5062 Q166.6301 6.5062 166.552 6.4437 Q166.4738 6.3812 166.4738 6.3031 Z"
      /><path style="stroke:none;" d="M174.9061 3.5999 Q174.7499 3.5999 174.7499 3.3968 Q174.7655 3.3656 174.7889 3.2796 Q174.8124 3.1937 174.8436 3.1312 Q174.8749 3.0687 174.953 3.0687 Q175.3749 3.0687 175.6952 3.0453 Q176.0155 3.0218 176.2343 2.9749 Q176.4061 2.8968 176.5155 2.5687 L178.5624 -5.6657 Q178.5936 -5.8219 178.5936 -5.8844 Q178.5936 -6.0407 178.4218 -6.0563 Q178.1405 -6.1188 177.328 -6.1188 Q177.1874 -6.1188 177.1874 -6.3219 Q177.203 -6.3532 177.2186 -6.4469 Q177.2343 -6.5407 177.2811 -6.5954 Q177.328 -6.6501 177.3749 -6.6501 L182.7499 -6.6501 Q183.2499 -6.6501 183.7264 -6.5251 Q184.203 -6.4001 184.6093 -6.1422 Q185.0155 -5.8844 185.2577 -5.486 Q185.4999 -5.0876 185.4999 -4.5719 Q185.4999 -4.0094 185.2108 -3.5251 Q184.9218 -3.0407 184.4608 -2.6813 Q183.9999 -2.3219 183.4686 -2.0954 Q182.9374 -1.8688 182.3593 -1.7594 Q182.7655 -1.7594 183.1874 -1.5954 Q183.6093 -1.4313 183.9374 -1.1501 Q184.2655 -0.8688 184.4686 -0.486 Q184.6718 -0.1032 184.6718 0.3499 Q184.6718 1.2562 184.0468 1.9984 Q183.4218 2.7406 182.4608 3.1703 Q181.4999 3.5999 180.6093 3.5999 L174.9061 3.5999 ZM177.6718 2.9593 Q177.6718 3.0687 178.1718 3.0687 L180.328 3.0687 Q181.0624 3.0687 181.7343 2.6624 Q182.4061 2.2562 182.8124 1.5843 Q183.2186 0.9124 183.2186 0.1781 Q183.2186 -0.2751 183.0311 -0.6735 Q182.8436 -1.0719 182.4921 -1.2985 Q182.1405 -1.5251 181.6874 -1.5251 L178.7655 -1.5251 L177.7186 2.6312 Q177.6718 2.8343 177.6718 2.9593 ZM178.8593 -1.9157 L181.1405 -1.9157 Q181.8593 -1.9157 182.5389 -2.2829 Q183.2186 -2.6501 183.6483 -3.2829 Q184.078 -3.9157 184.078 -4.6188 Q184.078 -5.2751 183.6718 -5.6969 Q183.2655 -6.1188 182.6093 -6.1188 L180.5624 -6.1188 Q180.1561 -6.1188 180.0155 -6.0485 Q179.8749 -5.9782 179.7811 -5.6032 L178.8593 -1.9157 Z"
      /><path style="stroke:none;" d="M186.9895 3.5999 Q186.8488 3.5999 186.8488 3.3968 Q186.8488 3.3656 186.8723 3.2718 Q186.8957 3.1781 186.9348 3.1234 Q186.9738 3.0687 187.0363 3.0687 Q187.9426 3.0687 188.302 2.9749 Q188.5051 2.8968 188.5988 2.5687 L190.6457 -5.6657 Q190.677 -5.8219 190.677 -5.8844 Q190.677 -6.0407 190.5051 -6.0563 Q190.2238 -6.1188 189.427 -6.1188 Q189.2707 -6.1188 189.2707 -6.3219 Q189.2863 -6.3532 189.3098 -6.4469 Q189.3332 -6.5407 189.3723 -6.5954 Q189.4113 -6.6501 189.4582 -6.6501 L197.5988 -6.6501 Q197.7551 -6.6501 197.7551 -6.4469 L197.3957 -3.3376 Q197.3957 -3.3063 197.341 -3.2594 Q197.2863 -3.2126 197.2395 -3.2126 L197.0988 -3.2126 Q196.9582 -3.2126 196.9582 -3.4001 Q197.0363 -4.1344 197.0363 -4.4938 Q197.0363 -5.0876 196.8332 -5.4235 Q196.6301 -5.7594 196.2863 -5.9001 Q195.9426 -6.0407 195.5285 -6.0797 Q195.1145 -6.1188 194.4426 -6.1188 L192.7395 -6.1188 Q192.3332 -6.1188 192.2004 -6.0485 Q192.0676 -5.9782 191.9582 -5.6032 L191.052 -1.9782 L192.2238 -1.9782 Q192.9895 -1.9782 193.3801 -2.0876 Q193.7707 -2.1969 193.9973 -2.5329 Q194.2238 -2.8688 194.3957 -3.6032 Q194.4113 -3.6501 194.4504 -3.6891 Q194.4895 -3.7282 194.552 -3.7282 L194.6926 -3.7282 Q194.8332 -3.7282 194.8332 -3.5407 L193.9113 0.1624 Q193.8801 0.3031 193.7551 0.3031 L193.6145 0.3031 Q193.4738 0.3031 193.4738 0.0999 Q193.6145 -0.4938 193.6145 -0.7751 Q193.6145 -1.2126 193.2238 -1.3297 Q192.8332 -1.4469 192.1613 -1.4469 L190.927 -1.4469 L189.9113 2.6312 Q189.8332 2.8031 189.8332 2.9593 Q189.8332 3.0687 190.3488 3.0687 L192.1613 3.0687 Q193.2551 3.0687 193.927 2.9046 Q194.5988 2.7406 195.0442 2.3656 Q195.4895 1.9906 195.8098 1.4203 Q196.1301 0.8499 196.5988 -0.2438 Q196.6145 -0.3376 196.7238 -0.3376 L196.8645 -0.3376 Q196.927 -0.3376 196.966 -0.2829 Q197.0051 -0.2282 197.0051 -0.1657 Q197.0051 -0.1344 196.9895 -0.1032 L195.4426 3.5062 Q195.427 3.5999 195.3332 3.5999 L186.9895 3.5999 Z"
      /><path style="stroke:none;" d="M198.9582 3.5999 Q198.8176 3.5999 198.8176 3.3968 Q198.8176 3.3656 198.841 3.2718 Q198.8644 3.1781 198.9035 3.1234 Q198.9426 3.0687 199.0051 3.0687 Q199.9113 3.0687 200.2863 2.9749 Q200.4738 2.8968 200.5676 2.5687 L202.6144 -5.6657 Q202.6457 -5.8219 202.6457 -5.8844 Q202.6457 -6.0407 202.4738 -6.0563 Q202.1926 -6.1188 201.3957 -6.1188 Q201.2394 -6.1188 201.2394 -6.3219 Q201.2551 -6.3532 201.2707 -6.4469 Q201.2863 -6.5407 201.3332 -6.5954 Q201.3801 -6.6501 201.4269 -6.6501 L205.9738 -6.6501 Q206.5207 -6.6501 207.1066 -6.5251 Q207.6926 -6.4001 208.1847 -6.1344 Q208.6769 -5.8688 208.9894 -5.4235 Q209.3019 -4.9782 209.3019 -4.3844 Q209.3019 -3.6344 208.8019 -3.0407 Q208.3019 -2.4469 207.5441 -2.0485 Q206.7863 -1.6501 206.0676 -1.4782 Q206.6613 -1.2751 207.0285 -0.8063 Q207.3957 -0.3376 207.3957 0.2718 Q207.3957 0.3499 207.3957 0.389 Q207.3957 0.4281 207.3801 0.4749 L207.2707 1.8187 Q207.2551 2.0999 207.2394 2.3109 Q207.2238 2.5218 207.2238 2.6468 Q207.2238 3.0531 207.3488 3.2953 Q207.4738 3.5374 207.8332 3.5374 Q208.3019 3.5374 208.6535 3.0999 Q209.0051 2.6624 209.1144 2.1624 Q209.1769 2.0218 209.2551 2.0218 L209.3957 2.0218 Q209.5519 2.0218 209.5519 2.2249 Q209.4426 2.6624 209.2004 3.0453 Q208.9582 3.4281 208.5988 3.6781 Q208.2394 3.9281 207.8176 3.9281 Q206.9269 3.9281 206.3097 3.5374 Q205.6926 3.1468 205.6926 2.3031 Q205.6926 1.9906 205.7551 1.7562 L206.0832 0.4281 Q206.1457 0.2406 206.1457 -0.0094 Q206.1457 -0.6188 205.7238 -0.9782 Q205.3019 -1.3376 204.6613 -1.3376 L202.8176 -1.3376 L201.8332 2.6312 Q201.7863 2.7562 201.7863 2.8343 Q201.7863 2.9906 201.9738 3.0062 Q202.2551 3.0687 203.0519 3.0687 Q203.2082 3.0687 203.2082 3.2718 Q203.1457 3.4749 203.1222 3.5374 Q203.0988 3.5999 202.9426 3.5999 L198.9582 3.5999 ZM202.9113 -1.7282 L204.5676 -1.7282 Q206.1926 -1.7282 207.0207 -2.5563 Q207.4113 -2.9313 207.6301 -3.5251 Q207.8488 -4.1188 207.8488 -4.6969 Q207.8488 -5.2594 207.5285 -5.5719 Q207.2082 -5.8844 206.7238 -6.0016 Q206.2394 -6.1188 205.6613 -6.1188 L204.6613 -6.1188 Q204.2551 -6.1188 204.1222 -6.0485 Q203.9894 -5.9782 203.8801 -5.6032 L202.9113 -1.7282 Z"
      /><path style="stroke:none;" d="M215.0206 1.5999 Q214.8956 1.5999 214.8175 1.5062 Q214.7393 1.4124 214.7393 1.3031 Q214.7393 1.1781 214.8175 1.0921 Q214.8956 1.0062 215.0206 1.0062 L224.4425 1.0062 Q224.5518 1.0062 224.63 1.0921 Q224.7081 1.1781 224.7081 1.3031 Q224.7081 1.4124 224.63 1.5062 Q224.5518 1.5999 224.4425 1.5999 L215.0206 1.5999 ZM215.0206 -1.3063 Q214.8956 -1.3063 214.8175 -1.3922 Q214.7393 -1.4782 214.7393 -1.6032 Q214.7393 -1.7126 214.8175 -1.8141 Q214.8956 -1.9157 215.0206 -1.9157 L224.4425 -1.9157 Q224.5518 -1.9157 224.63 -1.8141 Q224.7081 -1.7126 224.7081 -1.6032 Q224.7081 -1.4782 224.63 -1.3922 Q224.5518 -1.3063 224.4425 -1.3063 L215.0206 -1.3063 Z"
      /><path style="stroke:none;" d="M231.1195 3.5999 L231.1195 3.0687 Q232.9945 3.0687 232.9945 2.5999 L232.9945 -5.2751 Q232.2132 -4.9001 231.0257 -4.9001 L231.0257 -5.4313 Q232.8695 -5.4313 233.807 -6.3844 L234.0257 -6.3844 Q234.0726 -6.3844 234.1195 -6.3454 Q234.1664 -6.3063 234.1664 -6.2594 L234.1664 2.5999 Q234.1664 3.0687 236.0414 3.0687 L236.0414 3.5999 L231.1195 3.5999 Z"
      /><path style="stroke:none;" d="M238.4945 2.7718 Q238.4945 2.4281 238.7445 2.1937 Q238.9945 1.9593 239.3226 1.9593 Q239.5258 1.9593 239.7211 2.0687 Q239.9164 2.1781 240.0258 2.3734 Q240.1351 2.5687 240.1351 2.7718 Q240.1351 3.0999 239.8929 3.3499 Q239.6508 3.5999 239.3226 3.5999 Q238.9945 3.5999 238.7445 3.3499 Q238.4945 3.0999 238.4945 2.7718 Z"
      /><path style="stroke:none;" d="M245.1456 3.9281 Q243.3018 3.9281 242.6456 2.4124 Q241.9893 0.8968 241.9893 -1.1813 Q241.9893 -2.4938 242.2237 -3.6422 Q242.4581 -4.7907 243.1612 -5.5876 Q243.8643 -6.3844 245.1456 -6.3844 Q246.1299 -6.3844 246.7628 -5.9079 Q247.3956 -5.4313 247.7237 -4.6657 Q248.0518 -3.9001 248.1768 -3.0251 Q248.3018 -2.1501 248.3018 -1.1813 Q248.3018 0.0999 248.0596 1.2249 Q247.8174 2.3499 247.1221 3.139 Q246.4268 3.9281 245.1456 3.9281 ZM245.1456 3.5374 Q245.9737 3.5374 246.3878 2.6859 Q246.8018 1.8343 246.8956 0.7874 Q246.9893 -0.2594 246.9893 -1.4313 Q246.9893 -2.5563 246.8956 -3.5094 Q246.8018 -4.4626 246.3956 -5.236 Q245.9893 -6.0094 245.1456 -6.0094 Q244.3018 -6.0094 243.8878 -5.2282 Q243.4737 -4.4469 243.3799 -3.5016 Q243.2862 -2.5563 243.2862 -1.4313 Q243.2862 -0.5876 243.3253 0.1546 Q243.3643 0.8968 243.544 1.6781 Q243.7237 2.4593 244.1143 2.9984 Q244.5049 3.5374 245.1456 3.5374 Z"
      /><path style="stroke:none;" d="M251.9112 3.7718 Q251.1925 3.7718 250.6534 3.3968 Q250.1143 3.0218 249.8331 2.389 Q249.5518 1.7562 249.5518 1.0531 Q249.5518 -0.0251 250.0909 -0.9626 Q250.63 -1.9001 251.5518 -2.4626 Q252.4737 -3.0251 253.5362 -3.0251 Q254.1768 -3.0251 254.6534 -2.6969 Q255.13 -2.3688 255.13 -1.7438 Q255.13 -0.8688 254.4425 -0.4547 Q253.755 -0.0407 252.8956 0.0609 Q252.0362 0.1624 250.9893 0.1624 L250.9425 0.1624 Q250.6925 1.0531 250.6925 1.6937 Q250.6925 2.3656 251.005 2.8656 Q251.3175 3.3656 251.9425 3.3656 Q252.8331 3.3656 253.6612 2.9593 Q254.4893 2.5531 255.005 1.8343 Q255.0518 1.7874 255.1143 1.7874 Q255.1925 1.7874 255.2706 1.8734 Q255.3487 1.9593 255.3487 2.0218 Q255.3487 2.0843 255.3175 2.1156 Q254.7706 2.8812 253.8409 3.3265 Q252.9112 3.7718 251.9112 3.7718 ZM251.0206 -0.2282 Q251.8956 -0.2282 252.6378 -0.3063 Q253.38 -0.3844 253.9815 -0.7126 Q254.5831 -1.0407 254.5831 -1.7282 Q254.5831 -2.0094 254.4268 -2.2126 Q254.2706 -2.4157 254.0284 -2.5251 Q253.7862 -2.6344 253.5206 -2.6344 Q252.88 -2.6344 252.3721 -2.2907 Q251.8643 -1.9469 251.5362 -1.4001 Q251.2081 -0.8532 251.0206 -0.2282 Z"
      /><path style="stroke:none;" d="M260.7445 0.1468 Q260.6195 0.1468 260.5414 0.0531 Q260.4632 -0.0407 260.4632 -0.1501 Q260.4632 -0.2594 260.5414 -0.3532 Q260.6195 -0.4469 260.7445 -0.4469 L269.3539 -0.4469 Q269.4632 -0.4469 269.5414 -0.3532 Q269.6195 -0.2594 269.6195 -0.1501 Q269.6195 -0.0407 269.5414 0.0531 Q269.4632 0.1468 269.3539 0.1468 L260.7445 0.1468 Z"
      /><path style="stroke:none;" d="M277.9632 3.9281 Q276.1194 3.9281 275.4632 2.4124 Q274.8069 0.8968 274.8069 -1.1813 Q274.8069 -2.4938 275.0413 -3.6422 Q275.2757 -4.7907 275.9788 -5.5876 Q276.6819 -6.3844 277.9632 -6.3844 Q278.9476 -6.3844 279.5804 -5.9079 Q280.2132 -5.4313 280.5413 -4.6657 Q280.8694 -3.9001 280.9944 -3.0251 Q281.1194 -2.1501 281.1194 -1.1813 Q281.1194 0.0999 280.8773 1.2249 Q280.6351 2.3499 279.9398 3.139 Q279.2444 3.9281 277.9632 3.9281 ZM277.9632 3.5374 Q278.7913 3.5374 279.2054 2.6859 Q279.6194 1.8343 279.7132 0.7874 Q279.8069 -0.2594 279.8069 -1.4313 Q279.8069 -2.5563 279.7132 -3.5094 Q279.6194 -4.4626 279.2132 -5.236 Q278.8069 -6.0094 277.9632 -6.0094 Q277.1194 -6.0094 276.7054 -5.2282 Q276.2913 -4.4469 276.1976 -3.5016 Q276.1038 -2.5563 276.1038 -1.4313 Q276.1038 -0.5876 276.1429 0.1546 Q276.1819 0.8968 276.3616 1.6781 Q276.5413 2.4593 276.9319 2.9984 Q277.3226 3.5374 277.9632 3.5374 Z"
      /><path style="stroke:none;" d="M283.0101 1.8968 Q283.1664 2.3343 283.4867 2.6937 Q283.807 3.0531 284.2445 3.2562 Q284.682 3.4593 285.1507 3.4593 Q286.2289 3.4593 286.6429 2.6156 Q287.057 1.7718 287.057 0.5687 Q287.057 0.0531 287.0335 -0.3063 Q287.0101 -0.6657 286.932 -0.9938 Q286.7914 -1.5251 286.4476 -1.9157 Q286.1039 -2.3063 285.5882 -2.3063 Q285.0882 -2.3063 284.7289 -2.1579 Q284.3695 -2.0094 284.1429 -1.7985 Q283.9164 -1.5876 283.7367 -1.361 Q283.557 -1.1344 283.5101 -1.1188 L283.3539 -1.1188 Q283.307 -1.1188 283.2523 -1.1657 Q283.1976 -1.2126 283.1976 -1.2594 L283.1976 -6.2751 Q283.1976 -6.3063 283.2445 -6.3454 Q283.2914 -6.3844 283.3539 -6.3844 L283.3851 -6.3844 Q284.4007 -5.9001 285.5414 -5.9001 Q286.6507 -5.9001 287.682 -6.3844 L287.7289 -6.3844 Q287.7757 -6.3844 287.8226 -6.3532 Q287.8695 -6.3219 287.8695 -6.2751 L287.8695 -6.1344 Q287.8695 -6.0563 287.8382 -6.0563 Q287.3226 -5.3844 286.5492 -5.0016 Q285.7757 -4.6188 284.9476 -4.6188 Q284.3539 -4.6188 283.7132 -4.7907 L283.7132 -1.9469 Q284.2132 -2.3532 284.6039 -2.5251 Q284.9945 -2.6969 285.6039 -2.6969 Q286.432 -2.6969 287.0882 -2.2204 Q287.7445 -1.7438 288.096 -0.9782 Q288.4476 -0.2126 288.4476 0.5843 Q288.4476 1.4906 288.0101 2.2562 Q287.5726 3.0218 286.807 3.4749 Q286.0414 3.9281 285.1507 3.9281 Q284.4164 3.9281 283.7914 3.5453 Q283.1664 3.1624 282.8148 2.5218 Q282.4632 1.8812 282.4632 1.1468 Q282.4632 0.8187 282.682 0.6078 Q282.9007 0.3968 283.2289 0.3968 Q283.557 0.3968 283.7835 0.6078 Q284.0101 0.8187 284.0101 1.1468 Q284.0101 1.4749 283.7835 1.7015 Q283.557 1.9281 283.2289 1.9281 Q283.182 1.9281 283.1117 1.9124 Q283.0414 1.8968 283.0101 1.8968 Z"
    /></g
    ><g style="stroke-linecap:butt; fill:red; text-rendering:geometricPrecision; image-rendering:optimizeQuality; color-rendering:optimizeQuality; stroke-linejoin:round; stroke:red; color-interpolation:linearRGB; stroke-width:2.5;"
    ><line y2="61.5" style="fill:none;" x1="92.0005" x2="142.0057" y1="61.5"
      /><circle transform="translate(117.0031,61.5)" style="fill:none; stroke-linejoin:miter;" r="5" cx="0" cy="0"
    /></g
    ><g style="stroke-linecap:butt; fill:rgb(38,38,38); text-rendering:geometricPrecision; color-rendering:optimizeQuality; image-rendering:optimizeQuality; stroke:rgb(38,38,38); color-interpolation:linearRGB; stroke-width:0.8333;"
    ><path d="M87 73 L87 50 L440 50 L440 73 Z" style="fill:none; fill-rule:evenodd;"
    /></g
  ></g
></svg
>
